# MagicaVoxel @ Ephtracy

# group
g warderobeDoors_R

# material
mtllib warderobeDoors_R.mtl
usemtl palette

# normals
vn -1 0 0
vn 1 0 0
vn 0 0 1
vn 0 0 -1
vn 0 -1 0
vn 0 1 0

# texcoords
vt 0.306641 0.5

# verts
v -20 5 -2.5
v -20 5 -3.5
v -20 101 -2.5
v -20 101 -3.5
v -18 0 -0.5
v -18 0 -2.5
v -18 4 -2.5
v -18 4 -3.5
v -18 5 -2.5
v -18 5 -3.5
v -18 101 -2.5
v -18 101 -3.5
v -18 102 -2.5
v -18 102 -3.5
v -18 104 -0.5
v -18 104 -2.5
v -17 1 0.5
v -17 1 -0.5
v -17 102 0.5
v -17 102 -0.5
v -16 41 1.5
v -16 41 0.5
v -16 42 1.5
v -16 42 0.5
v -16 55 1.5
v -16 55 0.5
v -16 56 1.5
v -16 56 0.5
v -15 41 2.5
v -15 41 1.5
v -15 42 3.5
v -15 42 2.5
v -15 42 1.5
v -15 54 3.5
v -15 54 2.5
v -15 54 0.5
v -15 55 2.5
v -15 55 1.5
v -15 55 0.5
v 19 6 -1.5
v 19 6 -2.5
v 19 11 -1.5
v 19 11 -2.5
v 19 39 -1.5
v 19 39 -2.5
v 19 44 -1.5
v 19 44 -2.5
v 19 65 -1.5
v 19 65 -2.5
v 19 70 -1.5
v 19 70 -2.5
v -17 4 -2.5
v -17 4 -3.5
v -17 102 -2.5
v -17 102 -3.5
v -14 103 -0.5
v -14 103 -2.5
v -14 104 -0.5
v -14 104 -2.5
v -13 41 2.5
v -13 41 1.5
v -13 42 3.5
v -13 42 2.5
v -13 42 1.5
v -13 54 3.5
v -13 54 2.5
v -13 54 0.5
v -13 55 2.5
v -13 55 1.5
v -13 55 0.5
v -12 41 1.5
v -12 41 0.5
v -12 42 1.5
v -12 42 0.5
v -12 55 1.5
v -12 55 0.5
v -12 56 1.5
v -12 56 0.5
v -12 101 0.5
v -12 101 -0.5
v -12 102 0.5
v -12 102 -0.5
v -12 102 -2.5
v -12 103 -0.5
v -12 103 -2.5
v -10 100 0.5
v -10 100 -0.5
v -10 101 0.5
v -10 101 -0.5
v -10 101 -2.5
v -10 102 -0.5
v -10 102 -2.5
v -8 99 0.5
v -8 99 -0.5
v -8 100 0.5
v -8 100 -0.5
v -8 100 -2.5
v -8 101 -0.5
v -8 101 -2.5
v -6 98 0.5
v -6 98 -0.5
v -6 99 0.5
v -6 99 -0.5
v -6 99 -2.5
v -6 100 -0.5
v -6 100 -2.5
v -5 97 0.5
v -5 97 -0.5
v -5 98 0.5
v -5 98 -0.5
v -5 98 -2.5
v -5 99 -0.5
v -5 99 -2.5
v -4 96 0.5
v -4 96 -0.5
v -4 97 0.5
v -4 97 -0.5
v -4 97 -2.5
v -4 98 -0.5
v -4 98 -2.5
v -2 95 0.5
v -2 95 -0.5
v -2 96 0.5
v -2 96 -0.5
v -2 96 -2.5
v -2 97 -0.5
v -2 97 -2.5
v -1 94 0.5
v -1 94 -0.5
v -1 95 0.5
v -1 95 -0.5
v -1 95 -2.5
v -1 96 -0.5
v -1 96 -2.5
v 1 93 0.5
v 1 93 -0.5
v 1 94 0.5
v 1 94 -0.5
v 1 94 -2.5
v 1 95 -0.5
v 1 95 -2.5
v 2 92 0.5
v 2 92 -0.5
v 2 93 0.5
v 2 93 -0.5
v 2 93 -2.5
v 2 94 -0.5
v 2 94 -2.5
v 3 91 0.5
v 3 91 -0.5
v 3 92 0.5
v 3 92 -0.5
v 3 92 -2.5
v 3 93 -0.5
v 3 93 -2.5
v 4 90 0.5
v 4 90 -0.5
v 4 91 0.5
v 4 91 -0.5
v 4 91 -2.5
v 4 92 -0.5
v 4 92 -2.5
v 5 89 0.5
v 5 89 -0.5
v 5 90 0.5
v 5 90 -0.5
v 5 90 -2.5
v 5 91 -0.5
v 5 91 -2.5
v 6 88 0.5
v 6 88 -0.5
v 6 89 0.5
v 6 89 -0.5
v 6 89 -2.5
v 6 90 -0.5
v 6 90 -2.5
v 7 87 0.5
v 7 87 -0.5
v 7 88 0.5
v 7 88 -0.5
v 7 88 -2.5
v 7 89 -0.5
v 7 89 -2.5
v 8 85 0.5
v 8 85 -0.5
v 8 87 0.5
v 8 87 -0.5
v 8 87 -2.5
v 8 88 -0.5
v 8 88 -2.5
v 9 83 0.5
v 9 83 -0.5
v 9 85 0.5
v 9 85 -0.5
v 9 85 -2.5
v 9 87 -0.5
v 9 87 -2.5
v 10 82 0.5
v 10 82 -0.5
v 10 83 0.5
v 10 83 -0.5
v 10 83 -2.5
v 10 85 -0.5
v 10 85 -2.5
v 11 80 0.5
v 11 80 -0.5
v 11 82 0.5
v 11 82 -0.5
v 11 82 -2.5
v 11 83 -0.5
v 11 83 -2.5
v 12 79 0.5
v 12 79 -0.5
v 12 80 0.5
v 12 80 -0.5
v 12 80 -2.5
v 12 82 -0.5
v 12 82 -2.5
v 13 77 0.5
v 13 77 -0.5
v 13 79 0.5
v 13 79 -0.5
v 13 79 -2.5
v 13 80 -0.5
v 13 80 -2.5
v 14 75 0.5
v 14 75 -0.5
v 14 77 0.5
v 14 77 -0.5
v 14 77 -2.5
v 14 79 -0.5
v 14 79 -2.5
v 15 76 -0.5
v 15 76 -2.5
v 15 77 -0.5
v 15 77 -2.5
v 16 73 0.5
v 16 73 -0.5
v 16 74 -0.5
v 16 74 -2.5
v 16 75 0.5
v 16 75 -0.5
v 16 76 -0.5
v 16 76 -2.5
v 17 1 0.5
v 17 1 -0.5
v 17 73 0.5
v 17 73 -0.5
v 17 73 -2.5
v 17 74 -0.5
v 17 74 -2.5
v 18 0 -0.5
v 18 0 -2.5
v 18 70 -1.5
v 18 70 -2.5
v 18 71 -1.5
v 18 71 -2.5
v 18 73 -0.5
v 18 73 -2.5
v 19 70 -1.5
v 19 70 -2.5
v 19 71 -1.5
v 19 71 -2.5
v 20 6 -1.5
v 20 6 -2.5
v 20 11 -1.5
v 20 11 -2.5
v 20 39 -1.5
v 20 39 -2.5
v 20 44 -1.5
v 20 44 -2.5
v 20 65 -1.5
v 20 65 -2.5
v 20 70 -1.5
v 20 70 -2.5
v -15 42 3.5
v -15 54 3.5
v -13 42 3.5
v -13 54 3.5
v -15 41 2.5
v -15 42 2.5
v -15 54 2.5
v -15 55 2.5
v -13 41 2.5
v -13 42 2.5
v -13 54 2.5
v -13 55 2.5
v -16 41 1.5
v -16 42 1.5
v -16 55 1.5
v -16 56 1.5
v -15 41 1.5
v -15 42 1.5
v -15 55 1.5
v -13 41 1.5
v -13 42 1.5
v -13 55 1.5
v -12 41 1.5
v -12 42 1.5
v -12 55 1.5
v -12 56 1.5
v -17 1 0.5
v -17 102 0.5
v -16 41 0.5
v -16 42 0.5
v -16 55 0.5
v -16 56 0.5
v -15 54 0.5
v -15 55 0.5
v -13 54 0.5
v -13 55 0.5
v -12 41 0.5
v -12 42 0.5
v -12 55 0.5
v -12 56 0.5
v -12 101 0.5
v -12 102 0.5
v -10 100 0.5
v -10 101 0.5
v -8 99 0.5
v -8 100 0.5
v -6 98 0.5
v -6 99 0.5
v -5 97 0.5
v -5 98 0.5
v -4 96 0.5
v -4 97 0.5
v -2 95 0.5
v -2 96 0.5
v -1 94 0.5
v -1 95 0.5
v 1 93 0.5
v 1 94 0.5
v 2 92 0.5
v 2 93 0.5
v 3 91 0.5
v 3 92 0.5
v 4 90 0.5
v 4 91 0.5
v 5 89 0.5
v 5 90 0.5
v 6 88 0.5
v 6 89 0.5
v 7 87 0.5
v 7 88 0.5
v 8 85 0.5
v 8 87 0.5
v 9 83 0.5
v 9 85 0.5
v 10 82 0.5
v 10 83 0.5
v 11 80 0.5
v 11 82 0.5
v 12 79 0.5
v 12 80 0.5
v 13 77 0.5
v 13 79 0.5
v 14 75 0.5
v 14 77 0.5
v 16 73 0.5
v 16 75 0.5
v 17 1 0.5
v 17 73 0.5
v -18 0 -0.5
v -18 104 -0.5
v -17 1 -0.5
v -17 102 -0.5
v -14 103 -0.5
v -14 104 -0.5
v -12 101 -0.5
v -12 102 -0.5
v -12 103 -0.5
v -10 100 -0.5
v -10 101 -0.5
v -10 102 -0.5
v -8 99 -0.5
v -8 100 -0.5
v -8 101 -0.5
v -6 98 -0.5
v -6 99 -0.5
v -6 100 -0.5
v -5 97 -0.5
v -5 98 -0.5
v -5 99 -0.5
v -4 96 -0.5
v -4 97 -0.5
v -4 98 -0.5
v -2 95 -0.5
v -2 96 -0.5
v -2 97 -0.5
v -1 94 -0.5
v -1 95 -0.5
v -1 96 -0.5
v 1 93 -0.5
v 1 94 -0.5
v 1 95 -0.5
v 2 92 -0.5
v 2 93 -0.5
v 2 94 -0.5
v 3 91 -0.5
v 3 92 -0.5
v 3 93 -0.5
v 4 90 -0.5
v 4 91 -0.5
v 4 92 -0.5
v 5 89 -0.5
v 5 90 -0.5
v 5 91 -0.5
v 6 88 -0.5
v 6 89 -0.5
v 6 90 -0.5
v 7 87 -0.5
v 7 88 -0.5
v 7 89 -0.5
v 8 85 -0.5
v 8 87 -0.5
v 8 88 -0.5
v 9 83 -0.5
v 9 85 -0.5
v 9 87 -0.5
v 10 82 -0.5
v 10 83 -0.5
v 10 85 -0.5
v 11 80 -0.5
v 11 82 -0.5
v 11 83 -0.5
v 12 79 -0.5
v 12 80 -0.5
v 12 82 -0.5
v 13 77 -0.5
v 13 79 -0.5
v 13 80 -0.5
v 14 75 -0.5
v 14 77 -0.5
v 14 79 -0.5
v 15 76 -0.5
v 15 77 -0.5
v 16 73 -0.5
v 16 74 -0.5
v 16 75 -0.5
v 16 76 -0.5
v 17 1 -0.5
v 17 73 -0.5
v 17 74 -0.5
v 18 0 -0.5
v 18 73 -0.5
v 18 70 -1.5
v 18 71 -1.5
v 19 6 -1.5
v 19 11 -1.5
v 19 39 -1.5
v 19 44 -1.5
v 19 65 -1.5
v 19 70 -1.5
v 19 71 -1.5
v 20 6 -1.5
v 20 11 -1.5
v 20 39 -1.5
v 20 44 -1.5
v 20 65 -1.5
v 20 70 -1.5
v -20 5 -2.5
v -20 101 -2.5
v -18 5 -2.5
v -18 101 -2.5
v -15 42 2.5
v -15 54 2.5
v -13 42 2.5
v -13 54 2.5
v -18 0 -2.5
v -18 4 -2.5
v -18 102 -2.5
v -18 104 -2.5
v -17 4 -2.5
v -17 102 -2.5
v -14 103 -2.5
v -14 104 -2.5
v -12 102 -2.5
v -12 103 -2.5
v -10 101 -2.5
v -10 102 -2.5
v -8 100 -2.5
v -8 101 -2.5
v -6 99 -2.5
v -6 100 -2.5
v -5 98 -2.5
v -5 99 -2.5
v -4 97 -2.5
v -4 98 -2.5
v -2 96 -2.5
v -2 97 -2.5
v -1 95 -2.5
v -1 96 -2.5
v 1 94 -2.5
v 1 95 -2.5
v 2 93 -2.5
v 2 94 -2.5
v 3 92 -2.5
v 3 93 -2.5
v 4 91 -2.5
v 4 92 -2.5
v 5 90 -2.5
v 5 91 -2.5
v 6 89 -2.5
v 6 90 -2.5
v 7 88 -2.5
v 7 89 -2.5
v 8 87 -2.5
v 8 88 -2.5
v 9 85 -2.5
v 9 87 -2.5
v 10 83 -2.5
v 10 85 -2.5
v 11 82 -2.5
v 11 83 -2.5
v 12 80 -2.5
v 12 82 -2.5
v 13 79 -2.5
v 13 80 -2.5
v 14 77 -2.5
v 14 79 -2.5
v 15 76 -2.5
v 15 77 -2.5
v 16 74 -2.5
v 16 76 -2.5
v 17 73 -2.5
v 17 74 -2.5
v 18 0 -2.5
v 18 70 -2.5
v 18 71 -2.5
v 18 73 -2.5
v 19 6 -2.5
v 19 11 -2.5
v 19 39 -2.5
v 19 44 -2.5
v 19 65 -2.5
v 19 70 -2.5
v 19 71 -2.5
v 20 6 -2.5
v 20 11 -2.5
v 20 39 -2.5
v 20 44 -2.5
v 20 65 -2.5
v 20 70 -2.5
v -20 5 -3.5
v -20 101 -3.5
v -18 4 -3.5
v -18 5 -3.5
v -18 101 -3.5
v -18 102 -3.5
v -17 4 -3.5
v -17 102 -3.5
v -18 0 -0.5
v 18 0 -0.5
v -18 0 -2.5
v 18 0 -2.5
v -17 1 0.5
v 17 1 0.5
v -17 1 -0.5
v 17 1 -0.5
v -18 4 -2.5
v -17 4 -2.5
v -18 4 -3.5
v -17 4 -3.5
v -20 5 -2.5
v -18 5 -2.5
v -20 5 -3.5
v -18 5 -3.5
v 19 6 -1.5
v 20 6 -1.5
v 19 6 -2.5
v 20 6 -2.5
v 19 39 -1.5
v 20 39 -1.5
v 19 39 -2.5
v 20 39 -2.5
v -15 41 2.5
v -13 41 2.5
v -16 41 1.5
v -15 41 1.5
v -13 41 1.5
v -12 41 1.5
v -16 41 0.5
v -12 41 0.5
v -15 42 3.5
v -13 42 3.5
v -15 42 2.5
v -13 42 2.5
v -15 54 2.5
v -13 54 2.5
v -15 54 0.5
v -13 54 0.5
v -16 55 1.5
v -15 55 1.5
v -13 55 1.5
v -12 55 1.5
v -16 55 0.5
v -15 55 0.5
v -13 55 0.5
v -12 55 0.5
v 19 65 -1.5
v 20 65 -1.5
v 19 65 -2.5
v 20 65 -2.5
v 18 70 -1.5
v 19 70 -1.5
v 18 70 -2.5
v 19 70 -2.5
v 19 11 -1.5
v 20 11 -1.5
v 19 11 -2.5
v 20 11 -2.5
v -15 42 2.5
v -13 42 2.5
v -16 42 1.5
v -15 42 1.5
v -13 42 1.5
v -12 42 1.5
v -16 42 0.5
v -12 42 0.5
v 19 44 -1.5
v 20 44 -1.5
v 19 44 -2.5
v 20 44 -2.5
v -15 54 3.5
v -13 54 3.5
v -15 54 2.5
v -13 54 2.5
v -15 55 2.5
v -13 55 2.5
v -15 55 1.5
v -13 55 1.5
v -16 56 1.5
v -12 56 1.5
v -16 56 0.5
v -12 56 0.5
v 19 70 -1.5
v 20 70 -1.5
v 19 70 -2.5
v 20 70 -2.5
v 18 71 -1.5
v 19 71 -1.5
v 18 71 -2.5
v 19 71 -2.5
v 16 73 0.5
v 17 73 0.5
v 16 73 -0.5
v 17 73 -0.5
v 18 73 -0.5
v 17 73 -2.5
v 18 73 -2.5
v 16 74 -0.5
v 17 74 -0.5
v 16 74 -2.5
v 17 74 -2.5
v 14 75 0.5
v 16 75 0.5
v 14 75 -0.5
v 16 75 -0.5
v 15 76 -0.5
v 16 76 -0.5
v 15 76 -2.5
v 16 76 -2.5
v 13 77 0.5
v 14 77 0.5
v 13 77 -0.5
v 14 77 -0.5
v 15 77 -0.5
v 14 77 -2.5
v 15 77 -2.5
v 12 79 0.5
v 13 79 0.5
v 12 79 -0.5
v 13 79 -0.5
v 14 79 -0.5
v 13 79 -2.5
v 14 79 -2.5
v 11 80 0.5
v 12 80 0.5
v 11 80 -0.5
v 12 80 -0.5
v 13 80 -0.5
v 12 80 -2.5
v 13 80 -2.5
v 10 82 0.5
v 11 82 0.5
v 10 82 -0.5
v 11 82 -0.5
v 12 82 -0.5
v 11 82 -2.5
v 12 82 -2.5
v 9 83 0.5
v 10 83 0.5
v 9 83 -0.5
v 10 83 -0.5
v 11 83 -0.5
v 10 83 -2.5
v 11 83 -2.5
v 8 85 0.5
v 9 85 0.5
v 8 85 -0.5
v 9 85 -0.5
v 10 85 -0.5
v 9 85 -2.5
v 10 85 -2.5
v 7 87 0.5
v 8 87 0.5
v 7 87 -0.5
v 8 87 -0.5
v 9 87 -0.5
v 8 87 -2.5
v 9 87 -2.5
v 6 88 0.5
v 7 88 0.5
v 6 88 -0.5
v 7 88 -0.5
v 8 88 -0.5
v 7 88 -2.5
v 8 88 -2.5
v 5 89 0.5
v 6 89 0.5
v 5 89 -0.5
v 6 89 -0.5
v 7 89 -0.5
v 6 89 -2.5
v 7 89 -2.5
v 4 90 0.5
v 5 90 0.5
v 4 90 -0.5
v 5 90 -0.5
v 6 90 -0.5
v 5 90 -2.5
v 6 90 -2.5
v 3 91 0.5
v 4 91 0.5
v 3 91 -0.5
v 4 91 -0.5
v 5 91 -0.5
v 4 91 -2.5
v 5 91 -2.5
v 2 92 0.5
v 3 92 0.5
v 2 92 -0.5
v 3 92 -0.5
v 4 92 -0.5
v 3 92 -2.5
v 4 92 -2.5
v 1 93 0.5
v 2 93 0.5
v 1 93 -0.5
v 2 93 -0.5
v 3 93 -0.5
v 2 93 -2.5
v 3 93 -2.5
v -1 94 0.5
v 1 94 0.5
v -1 94 -0.5
v 1 94 -0.5
v 2 94 -0.5
v 1 94 -2.5
v 2 94 -2.5
v -2 95 0.5
v -1 95 0.5
v -2 95 -0.5
v -1 95 -0.5
v 1 95 -0.5
v -1 95 -2.5
v 1 95 -2.5
v -4 96 0.5
v -2 96 0.5
v -4 96 -0.5
v -2 96 -0.5
v -1 96 -0.5
v -2 96 -2.5
v -1 96 -2.5
v -5 97 0.5
v -4 97 0.5
v -5 97 -0.5
v -4 97 -0.5
v -2 97 -0.5
v -4 97 -2.5
v -2 97 -2.5
v -6 98 0.5
v -5 98 0.5
v -6 98 -0.5
v -5 98 -0.5
v -4 98 -0.5
v -5 98 -2.5
v -4 98 -2.5
v -8 99 0.5
v -6 99 0.5
v -8 99 -0.5
v -6 99 -0.5
v -5 99 -0.5
v -6 99 -2.5
v -5 99 -2.5
v -10 100 0.5
v -8 100 0.5
v -10 100 -0.5
v -8 100 -0.5
v -6 100 -0.5
v -8 100 -2.5
v -6 100 -2.5
v -12 101 0.5
v -10 101 0.5
v -12 101 -0.5
v -10 101 -0.5
v -8 101 -0.5
v -20 101 -2.5
v -18 101 -2.5
v -10 101 -2.5
v -8 101 -2.5
v -20 101 -3.5
v -18 101 -3.5
v -17 102 0.5
v -12 102 0.5
v -17 102 -0.5
v -12 102 -0.5
v -10 102 -0.5
v -18 102 -2.5
v -17 102 -2.5
v -12 102 -2.5
v -10 102 -2.5
v -18 102 -3.5
v -17 102 -3.5
v -14 103 -0.5
v -12 103 -0.5
v -14 103 -2.5
v -12 103 -2.5
v -18 104 -0.5
v -14 104 -0.5
v -18 104 -2.5
v -14 104 -2.5

# faces
f 3/1/1 2/1/1 1/1/1
f 4/1/1 2/1/1 3/1/1
f 7/1/1 6/1/1 5/1/1
f 9/1/1 7/1/1 5/1/1
f 9/1/1 8/1/1 7/1/1
f 10/1/1 8/1/1 9/1/1
f 11/1/1 9/1/1 5/1/1
f 13/1/1 11/1/1 5/1/1
f 13/1/1 12/1/1 11/1/1
f 14/1/1 12/1/1 13/1/1
f 15/1/1 13/1/1 5/1/1
f 16/1/1 13/1/1 15/1/1
f 19/1/1 18/1/1 17/1/1
f 20/1/1 18/1/1 19/1/1
f 23/1/1 22/1/1 21/1/1
f 24/1/1 22/1/1 23/1/1
f 27/1/1 26/1/1 25/1/1
f 28/1/1 26/1/1 27/1/1
f 32/1/1 30/1/1 29/1/1
f 33/1/1 30/1/1 32/1/1
f 34/1/1 32/1/1 31/1/1
f 35/1/1 32/1/1 34/1/1
f 37/1/1 36/1/1 35/1/1
f 38/1/1 36/1/1 37/1/1
f 39/1/1 36/1/1 38/1/1
f 42/1/1 41/1/1 40/1/1
f 43/1/1 41/1/1 42/1/1
f 46/1/1 45/1/1 44/1/1
f 47/1/1 45/1/1 46/1/1
f 50/1/1 49/1/1 48/1/1
f 51/1/1 49/1/1 50/1/1
f 52/1/2 53/1/2 54/1/2
f 54/1/2 53/1/2 55/1/2
f 56/1/2 57/1/2 58/1/2
f 58/1/2 57/1/2 59/1/2
f 60/1/2 61/1/2 63/1/2
f 63/1/2 61/1/2 64/1/2
f 62/1/2 63/1/2 65/1/2
f 65/1/2 63/1/2 66/1/2
f 66/1/2 67/1/2 68/1/2
f 68/1/2 67/1/2 69/1/2
f 69/1/2 67/1/2 70/1/2
f 71/1/2 72/1/2 73/1/2
f 73/1/2 72/1/2 74/1/2
f 75/1/2 76/1/2 77/1/2
f 77/1/2 76/1/2 78/1/2
f 79/1/2 80/1/2 81/1/2
f 81/1/2 80/1/2 82/1/2
f 82/1/2 83/1/2 84/1/2
f 84/1/2 83/1/2 85/1/2
f 86/1/2 87/1/2 88/1/2
f 88/1/2 87/1/2 89/1/2
f 89/1/2 90/1/2 91/1/2
f 91/1/2 90/1/2 92/1/2
f 93/1/2 94/1/2 95/1/2
f 95/1/2 94/1/2 96/1/2
f 96/1/2 97/1/2 98/1/2
f 98/1/2 97/1/2 99/1/2
f 100/1/2 101/1/2 102/1/2
f 102/1/2 101/1/2 103/1/2
f 103/1/2 104/1/2 105/1/2
f 105/1/2 104/1/2 106/1/2
f 107/1/2 108/1/2 109/1/2
f 109/1/2 108/1/2 110/1/2
f 110/1/2 111/1/2 112/1/2
f 112/1/2 111/1/2 113/1/2
f 114/1/2 115/1/2 116/1/2
f 116/1/2 115/1/2 117/1/2
f 117/1/2 118/1/2 119/1/2
f 119/1/2 118/1/2 120/1/2
f 121/1/2 122/1/2 123/1/2
f 123/1/2 122/1/2 124/1/2
f 124/1/2 125/1/2 126/1/2
f 126/1/2 125/1/2 127/1/2
f 128/1/2 129/1/2 130/1/2
f 130/1/2 129/1/2 131/1/2
f 131/1/2 132/1/2 133/1/2
f 133/1/2 132/1/2 134/1/2
f 135/1/2 136/1/2 137/1/2
f 137/1/2 136/1/2 138/1/2
f 138/1/2 139/1/2 140/1/2
f 140/1/2 139/1/2 141/1/2
f 142/1/2 143/1/2 144/1/2
f 144/1/2 143/1/2 145/1/2
f 145/1/2 146/1/2 147/1/2
f 147/1/2 146/1/2 148/1/2
f 149/1/2 150/1/2 151/1/2
f 151/1/2 150/1/2 152/1/2
f 152/1/2 153/1/2 154/1/2
f 154/1/2 153/1/2 155/1/2
f 156/1/2 157/1/2 158/1/2
f 158/1/2 157/1/2 159/1/2
f 159/1/2 160/1/2 161/1/2
f 161/1/2 160/1/2 162/1/2
f 163/1/2 164/1/2 165/1/2
f 165/1/2 164/1/2 166/1/2
f 166/1/2 167/1/2 168/1/2
f 168/1/2 167/1/2 169/1/2
f 170/1/2 171/1/2 172/1/2
f 172/1/2 171/1/2 173/1/2
f 173/1/2 174/1/2 175/1/2
f 175/1/2 174/1/2 176/1/2
f 177/1/2 178/1/2 179/1/2
f 179/1/2 178/1/2 180/1/2
f 180/1/2 181/1/2 182/1/2
f 182/1/2 181/1/2 183/1/2
f 184/1/2 185/1/2 186/1/2
f 186/1/2 185/1/2 187/1/2
f 187/1/2 188/1/2 189/1/2
f 189/1/2 188/1/2 190/1/2
f 191/1/2 192/1/2 193/1/2
f 193/1/2 192/1/2 194/1/2
f 194/1/2 195/1/2 196/1/2
f 196/1/2 195/1/2 197/1/2
f 198/1/2 199/1/2 200/1/2
f 200/1/2 199/1/2 201/1/2
f 201/1/2 202/1/2 203/1/2
f 203/1/2 202/1/2 204/1/2
f 205/1/2 206/1/2 207/1/2
f 207/1/2 206/1/2 208/1/2
f 208/1/2 209/1/2 210/1/2
f 210/1/2 209/1/2 211/1/2
f 212/1/2 213/1/2 214/1/2
f 214/1/2 213/1/2 215/1/2
f 215/1/2 216/1/2 217/1/2
f 217/1/2 216/1/2 218/1/2
f 219/1/2 220/1/2 221/1/2
f 221/1/2 220/1/2 222/1/2
f 222/1/2 223/1/2 224/1/2
f 224/1/2 223/1/2 225/1/2
f 226/1/2 227/1/2 228/1/2
f 228/1/2 227/1/2 229/1/2
f 229/1/2 230/1/2 231/1/2
f 231/1/2 230/1/2 232/1/2
f 233/1/2 234/1/2 235/1/2
f 235/1/2 234/1/2 236/1/2
f 237/1/2 238/1/2 239/1/2
f 237/1/2 239/1/2 241/1/2
f 239/1/2 240/1/2 241/1/2
f 241/1/2 240/1/2 242/1/2
f 242/1/2 240/1/2 243/1/2
f 243/1/2 240/1/2 244/1/2
f 245/1/2 246/1/2 247/1/2
f 247/1/2 246/1/2 248/1/2
f 248/1/2 249/1/2 250/1/2
f 250/1/2 249/1/2 251/1/2
f 252/1/2 253/1/2 254/1/2
f 254/1/2 253/1/2 255/1/2
f 252/1/2 254/1/2 256/1/2
f 252/1/2 256/1/2 258/1/2
f 256/1/2 257/1/2 258/1/2
f 258/1/2 257/1/2 259/1/2
f 260/1/2 261/1/2 262/1/2
f 262/1/2 261/1/2 263/1/2
f 264/1/2 265/1/2 266/1/2
f 266/1/2 265/1/2 267/1/2
f 268/1/2 269/1/2 270/1/2
f 270/1/2 269/1/2 271/1/2
f 272/1/2 273/1/2 274/1/2
f 274/1/2 273/1/2 275/1/2
f 278/1/3 277/1/3 276/1/3
f 279/1/3 277/1/3 278/1/3
f 284/1/3 281/1/3 280/1/3
f 285/1/3 281/1/3 284/1/3
f 286/1/3 283/1/3 282/1/3
f 287/1/3 283/1/3 286/1/3
f 292/1/3 289/1/3 288/1/3
f 293/1/3 289/1/3 292/1/3
f 294/1/3 291/1/3 290/1/3
f 297/1/3 291/1/3 294/1/3
f 298/1/3 296/1/3 295/1/3
f 299/1/3 296/1/3 298/1/3
f 300/1/3 291/1/3 297/1/3
f 301/1/3 291/1/3 300/1/3
f 304/1/3 303/1/3 302/1/3
f 305/1/3 303/1/3 304/1/3
f 306/1/3 303/1/3 305/1/3
f 307/1/3 303/1/3 306/1/3
f 308/1/3 306/1/3 305/1/3
f 309/1/3 306/1/3 308/1/3
f 310/1/3 308/1/3 305/1/3
f 312/1/3 304/1/3 302/1/3
f 313/1/3 311/1/3 310/1/3
f 313/1/3 310/1/3 305/1/3
f 314/1/3 311/1/3 313/1/3
f 315/1/3 303/1/3 307/1/3
f 316/1/3 303/1/3 315/1/3
f 317/1/3 303/1/3 316/1/3
f 318/1/3 314/1/3 313/1/3
f 318/1/3 313/1/3 312/1/3
f 318/1/3 316/1/3 315/1/3
f 318/1/3 315/1/3 314/1/3
f 319/1/3 316/1/3 318/1/3
f 320/1/3 318/1/3 312/1/3
f 321/1/3 318/1/3 320/1/3
f 322/1/3 320/1/3 312/1/3
f 323/1/3 320/1/3 322/1/3
f 324/1/3 322/1/3 312/1/3
f 325/1/3 322/1/3 324/1/3
f 326/1/3 324/1/3 312/1/3
f 327/1/3 324/1/3 326/1/3
f 328/1/3 326/1/3 312/1/3
f 329/1/3 326/1/3 328/1/3
f 330/1/3 328/1/3 312/1/3
f 331/1/3 328/1/3 330/1/3
f 332/1/3 330/1/3 312/1/3
f 333/1/3 330/1/3 332/1/3
f 334/1/3 332/1/3 312/1/3
f 335/1/3 332/1/3 334/1/3
f 336/1/3 334/1/3 312/1/3
f 337/1/3 334/1/3 336/1/3
f 338/1/3 336/1/3 312/1/3
f 339/1/3 336/1/3 338/1/3
f 340/1/3 338/1/3 312/1/3
f 341/1/3 338/1/3 340/1/3
f 342/1/3 340/1/3 312/1/3
f 343/1/3 340/1/3 342/1/3
f 344/1/3 342/1/3 312/1/3
f 345/1/3 342/1/3 344/1/3
f 346/1/3 344/1/3 312/1/3
f 347/1/3 344/1/3 346/1/3
f 348/1/3 346/1/3 312/1/3
f 349/1/3 346/1/3 348/1/3
f 350/1/3 348/1/3 312/1/3
f 351/1/3 348/1/3 350/1/3
f 352/1/3 350/1/3 312/1/3
f 353/1/3 350/1/3 352/1/3
f 354/1/3 352/1/3 312/1/3
f 355/1/3 352/1/3 354/1/3
f 356/1/3 354/1/3 312/1/3
f 357/1/3 354/1/3 356/1/3
f 358/1/3 356/1/3 312/1/3
f 359/1/3 356/1/3 358/1/3
f 360/1/3 358/1/3 312/1/3
f 361/1/3 358/1/3 360/1/3
f 362/1/3 312/1/3 302/1/3
f 362/1/3 360/1/3 312/1/3
f 363/1/3 360/1/3 362/1/3
f 366/1/3 365/1/3 364/1/3
f 367/1/3 365/1/3 366/1/3
f 368/1/3 365/1/3 367/1/3
f 369/1/3 365/1/3 368/1/3
f 371/1/3 368/1/3 367/1/3
f 372/1/3 368/1/3 371/1/3
f 374/1/3 371/1/3 370/1/3
f 375/1/3 371/1/3 374/1/3
f 377/1/3 374/1/3 373/1/3
f 378/1/3 374/1/3 377/1/3
f 380/1/3 377/1/3 376/1/3
f 381/1/3 377/1/3 380/1/3
f 383/1/3 380/1/3 379/1/3
f 384/1/3 380/1/3 383/1/3
f 386/1/3 383/1/3 382/1/3
f 387/1/3 383/1/3 386/1/3
f 389/1/3 386/1/3 385/1/3
f 390/1/3 386/1/3 389/1/3
f 392/1/3 389/1/3 388/1/3
f 393/1/3 389/1/3 392/1/3
f 395/1/3 392/1/3 391/1/3
f 396/1/3 392/1/3 395/1/3
f 398/1/3 395/1/3 394/1/3
f 399/1/3 395/1/3 398/1/3
f 401/1/3 398/1/3 397/1/3
f 402/1/3 398/1/3 401/1/3
f 404/1/3 401/1/3 400/1/3
f 405/1/3 401/1/3 404/1/3
f 407/1/3 404/1/3 403/1/3
f 408/1/3 404/1/3 407/1/3
f 410/1/3 407/1/3 406/1/3
f 411/1/3 407/1/3 410/1/3
f 413/1/3 410/1/3 409/1/3
f 414/1/3 410/1/3 413/1/3
f 416/1/3 413/1/3 412/1/3
f 417/1/3 413/1/3 416/1/3
f 419/1/3 416/1/3 415/1/3
f 420/1/3 416/1/3 419/1/3
f 422/1/3 419/1/3 418/1/3
f 423/1/3 419/1/3 422/1/3
f 425/1/3 422/1/3 421/1/3
f 426/1/3 422/1/3 425/1/3
f 428/1/3 425/1/3 424/1/3
f 429/1/3 425/1/3 428/1/3
f 431/1/3 428/1/3 427/1/3
f 432/1/3 428/1/3 431/1/3
f 434/1/3 431/1/3 430/1/3
f 435/1/3 431/1/3 434/1/3
f 436/1/3 434/1/3 433/1/3
f 437/1/3 434/1/3 436/1/3
f 440/1/3 436/1/3 433/1/3
f 441/1/3 436/1/3 440/1/3
f 442/1/3 366/1/3 364/1/3
f 443/1/3 439/1/3 438/1/3
f 444/1/3 439/1/3 443/1/3
f 445/1/3 442/1/3 364/1/3
f 445/1/3 443/1/3 442/1/3
f 446/1/3 443/1/3 445/1/3
f 454/1/3 448/1/3 447/1/3
f 455/1/3 448/1/3 454/1/3
f 456/1/3 450/1/3 449/1/3
f 457/1/3 450/1/3 456/1/3
f 458/1/3 452/1/3 451/1/3
f 459/1/3 452/1/3 458/1/3
f 460/1/3 454/1/3 453/1/3
f 461/1/3 454/1/3 460/1/3
f 464/1/3 463/1/3 462/1/3
f 465/1/3 463/1/3 464/1/3
f 466/1/4 467/1/4 468/1/4
f 468/1/4 467/1/4 469/1/4
f 470/1/4 471/1/4 474/1/4
f 472/1/4 473/1/4 475/1/4
f 475/1/4 473/1/4 476/1/4
f 474/1/4 475/1/4 476/1/4
f 476/1/4 473/1/4 477/1/4
f 474/1/4 476/1/4 478/1/4
f 478/1/4 476/1/4 479/1/4
f 474/1/4 478/1/4 480/1/4
f 480/1/4 478/1/4 481/1/4
f 474/1/4 480/1/4 482/1/4
f 482/1/4 480/1/4 483/1/4
f 474/1/4 482/1/4 484/1/4
f 484/1/4 482/1/4 485/1/4
f 474/1/4 484/1/4 486/1/4
f 486/1/4 484/1/4 487/1/4
f 474/1/4 486/1/4 488/1/4
f 488/1/4 486/1/4 489/1/4
f 474/1/4 488/1/4 490/1/4
f 490/1/4 488/1/4 491/1/4
f 474/1/4 490/1/4 492/1/4
f 492/1/4 490/1/4 493/1/4
f 474/1/4 492/1/4 494/1/4
f 494/1/4 492/1/4 495/1/4
f 474/1/4 494/1/4 496/1/4
f 496/1/4 494/1/4 497/1/4
f 474/1/4 496/1/4 498/1/4
f 498/1/4 496/1/4 499/1/4
f 474/1/4 498/1/4 500/1/4
f 500/1/4 498/1/4 501/1/4
f 474/1/4 500/1/4 502/1/4
f 502/1/4 500/1/4 503/1/4
f 474/1/4 502/1/4 504/1/4
f 504/1/4 502/1/4 505/1/4
f 474/1/4 504/1/4 506/1/4
f 506/1/4 504/1/4 507/1/4
f 474/1/4 506/1/4 508/1/4
f 508/1/4 506/1/4 509/1/4
f 474/1/4 508/1/4 510/1/4
f 510/1/4 508/1/4 511/1/4
f 474/1/4 510/1/4 512/1/4
f 512/1/4 510/1/4 513/1/4
f 474/1/4 512/1/4 514/1/4
f 514/1/4 512/1/4 515/1/4
f 474/1/4 514/1/4 516/1/4
f 516/1/4 514/1/4 517/1/4
f 474/1/4 516/1/4 518/1/4
f 518/1/4 516/1/4 519/1/4
f 474/1/4 518/1/4 520/1/4
f 520/1/4 518/1/4 521/1/4
f 474/1/4 520/1/4 522/1/4
f 522/1/4 520/1/4 523/1/4
f 474/1/4 522/1/4 524/1/4
f 524/1/4 522/1/4 525/1/4
f 474/1/4 524/1/4 526/1/4
f 526/1/4 524/1/4 527/1/4
f 470/1/4 474/1/4 528/1/4
f 474/1/4 526/1/4 528/1/4
f 528/1/4 526/1/4 529/1/4
f 529/1/4 526/1/4 530/1/4
f 530/1/4 526/1/4 531/1/4
f 529/1/4 530/1/4 537/1/4
f 537/1/4 530/1/4 538/1/4
f 532/1/4 533/1/4 539/1/4
f 539/1/4 533/1/4 540/1/4
f 534/1/4 535/1/4 541/1/4
f 541/1/4 535/1/4 542/1/4
f 536/1/4 537/1/4 543/1/4
f 543/1/4 537/1/4 544/1/4
f 545/1/4 546/1/4 548/1/4
f 548/1/4 546/1/4 549/1/4
f 547/1/4 548/1/4 551/1/4
f 549/1/4 550/1/4 551/1/4
f 548/1/4 549/1/4 551/1/4
f 551/1/4 550/1/4 552/1/4
f 555/1/5 554/1/5 553/1/5
f 556/1/5 554/1/5 555/1/5
f 559/1/5 558/1/5 557/1/5
f 560/1/5 558/1/5 559/1/5
f 563/1/5 562/1/5 561/1/5
f 564/1/5 562/1/5 563/1/5
f 567/1/5 566/1/5 565/1/5
f 568/1/5 566/1/5 567/1/5
f 571/1/5 570/1/5 569/1/5
f 572/1/5 570/1/5 571/1/5
f 575/1/5 574/1/5 573/1/5
f 576/1/5 574/1/5 575/1/5
f 580/1/5 578/1/5 577/1/5
f 581/1/5 578/1/5 580/1/5
f 583/1/5 580/1/5 579/1/5
f 583/1/5 582/1/5 581/1/5
f 583/1/5 581/1/5 580/1/5
f 584/1/5 582/1/5 583/1/5
f 587/1/5 586/1/5 585/1/5
f 588/1/5 586/1/5 587/1/5
f 591/1/5 590/1/5 589/1/5
f 592/1/5 590/1/5 591/1/5
f 597/1/5 594/1/5 593/1/5
f 598/1/5 594/1/5 597/1/5
f 599/1/5 596/1/5 595/1/5
f 600/1/5 596/1/5 599/1/5
f 603/1/5 602/1/5 601/1/5
f 604/1/5 602/1/5 603/1/5
f 607/1/5 606/1/5 605/1/5
f 608/1/5 606/1/5 607/1/5
f 609/1/6 610/1/6 611/1/6
f 611/1/6 610/1/6 612/1/6
f 613/1/6 614/1/6 616/1/6
f 616/1/6 614/1/6 617/1/6
f 615/1/6 616/1/6 619/1/6
f 617/1/6 618/1/6 619/1/6
f 616/1/6 617/1/6 619/1/6
f 619/1/6 618/1/6 620/1/6
f 621/1/6 622/1/6 623/1/6
f 623/1/6 622/1/6 624/1/6
f 625/1/6 626/1/6 627/1/6
f 627/1/6 626/1/6 628/1/6
f 629/1/6 630/1/6 631/1/6
f 631/1/6 630/1/6 632/1/6
f 633/1/6 634/1/6 635/1/6
f 635/1/6 634/1/6 636/1/6
f 637/1/6 638/1/6 639/1/6
f 639/1/6 638/1/6 640/1/6
f 641/1/6 642/1/6 643/1/6
f 643/1/6 642/1/6 644/1/6
f 645/1/6 646/1/6 647/1/6
f 647/1/6 646/1/6 648/1/6
f 648/1/6 649/1/6 650/1/6
f 650/1/6 649/1/6 651/1/6
f 652/1/6 653/1/6 654/1/6
f 654/1/6 653/1/6 655/1/6
f 656/1/6 657/1/6 658/1/6
f 658/1/6 657/1/6 659/1/6
f 660/1/6 661/1/6 662/1/6
f 662/1/6 661/1/6 663/1/6
f 664/1/6 665/1/6 666/1/6
f 666/1/6 665/1/6 667/1/6
f 667/1/6 668/1/6 669/1/6
f 669/1/6 668/1/6 670/1/6
f 671/1/6 672/1/6 673/1/6
f 673/1/6 672/1/6 674/1/6
f 674/1/6 675/1/6 676/1/6
f 676/1/6 675/1/6 677/1/6
f 678/1/6 679/1/6 680/1/6
f 680/1/6 679/1/6 681/1/6
f 681/1/6 682/1/6 683/1/6
f 683/1/6 682/1/6 684/1/6
f 685/1/6 686/1/6 687/1/6
f 687/1/6 686/1/6 688/1/6
f 688/1/6 689/1/6 690/1/6
f 690/1/6 689/1/6 691/1/6
f 692/1/6 693/1/6 694/1/6
f 694/1/6 693/1/6 695/1/6
f 695/1/6 696/1/6 697/1/6
f 697/1/6 696/1/6 698/1/6
f 699/1/6 700/1/6 701/1/6
f 701/1/6 700/1/6 702/1/6
f 702/1/6 703/1/6 704/1/6
f 704/1/6 703/1/6 705/1/6
f 706/1/6 707/1/6 708/1/6
f 708/1/6 707/1/6 709/1/6
f 709/1/6 710/1/6 711/1/6
f 711/1/6 710/1/6 712/1/6
f 713/1/6 714/1/6 715/1/6
f 715/1/6 714/1/6 716/1/6
f 716/1/6 717/1/6 718/1/6
f 718/1/6 717/1/6 719/1/6
f 720/1/6 721/1/6 722/1/6
f 722/1/6 721/1/6 723/1/6
f 723/1/6 724/1/6 725/1/6
f 725/1/6 724/1/6 726/1/6
f 727/1/6 728/1/6 729/1/6
f 729/1/6 728/1/6 730/1/6
f 730/1/6 731/1/6 732/1/6
f 732/1/6 731/1/6 733/1/6
f 734/1/6 735/1/6 736/1/6
f 736/1/6 735/1/6 737/1/6
f 737/1/6 738/1/6 739/1/6
f 739/1/6 738/1/6 740/1/6
f 741/1/6 742/1/6 743/1/6
f 743/1/6 742/1/6 744/1/6
f 744/1/6 745/1/6 746/1/6
f 746/1/6 745/1/6 747/1/6
f 748/1/6 749/1/6 750/1/6
f 750/1/6 749/1/6 751/1/6
f 751/1/6 752/1/6 753/1/6
f 753/1/6 752/1/6 754/1/6
f 755/1/6 756/1/6 757/1/6
f 757/1/6 756/1/6 758/1/6
f 758/1/6 759/1/6 760/1/6
f 760/1/6 759/1/6 761/1/6
f 762/1/6 763/1/6 764/1/6
f 764/1/6 763/1/6 765/1/6
f 765/1/6 766/1/6 767/1/6
f 767/1/6 766/1/6 768/1/6
f 769/1/6 770/1/6 771/1/6
f 771/1/6 770/1/6 772/1/6
f 772/1/6 773/1/6 774/1/6
f 774/1/6 773/1/6 775/1/6
f 776/1/6 777/1/6 778/1/6
f 778/1/6 777/1/6 779/1/6
f 779/1/6 780/1/6 781/1/6
f 781/1/6 780/1/6 782/1/6
f 783/1/6 784/1/6 785/1/6
f 785/1/6 784/1/6 786/1/6
f 786/1/6 787/1/6 788/1/6
f 788/1/6 787/1/6 789/1/6
f 790/1/6 791/1/6 792/1/6
f 792/1/6 791/1/6 793/1/6
f 793/1/6 794/1/6 795/1/6
f 795/1/6 794/1/6 796/1/6
f 797/1/6 798/1/6 799/1/6
f 799/1/6 798/1/6 800/1/6
f 800/1/6 801/1/6 802/1/6
f 802/1/6 801/1/6 803/1/6
f 804/1/6 805/1/6 806/1/6
f 806/1/6 805/1/6 807/1/6
f 807/1/6 808/1/6 811/1/6
f 811/1/6 808/1/6 812/1/6
f 809/1/6 810/1/6 813/1/6
f 813/1/6 810/1/6 814/1/6
f 815/1/6 816/1/6 817/1/6
f 817/1/6 816/1/6 818/1/6
f 818/1/6 819/1/6 822/1/6
f 822/1/6 819/1/6 823/1/6
f 820/1/6 821/1/6 824/1/6
f 824/1/6 821/1/6 825/1/6
f 826/1/6 827/1/6 828/1/6
f 828/1/6 827/1/6 829/1/6
f 830/1/6 831/1/6 832/1/6
f 832/1/6 831/1/6 833/1/6
