# MagicaVoxel @ Ephtracy

# group
g sonBed

# material
mtllib sonBed.mtl
usemtl palette

# normals
vn -1 0 0
vn 1 0 0
vn 0 0 1
vn 0 0 -1
vn 0 -1 0
vn 0 1 0

# texcoords
vt 0.306641 0.5

# verts
v -42 0 21
v -42 0 17
v -42 0 -17
v -42 0 -21
v -42 24 21
v -42 24 17
v -42 24 -17
v -42 24 -21
v -40 11 17
v -40 11 -17
v -40 20 17
v -40 20 16
v -40 20 -16
v -40 20 -17
v -40 21 16
v -40 21 15
v -40 21 -15
v -40 21 -16
v -40 22 15
v -40 22 13
v -40 22 -13
v -40 22 -15
v -40 23 13
v -40 23 11
v -40 23 -11
v -40 23 -13
v -40 24 11
v -40 24 9
v -40 24 -9
v -40 24 -11
v -40 25 9
v -40 25 5
v -40 25 -5
v -40 25 -9
v -40 26 5
v -40 26 -5
v -38 15 16
v -38 15 -16
v -38 19 16
v -38 19 -16
v -37 15 17
v -37 15 16
v -37 15 -16
v -37 15 -17
v -37 19 17
v -37 19 16
v -37 19 -16
v -37 19 -17
v -37 20 16
v -37 20 -16
v -36 15 18
v -36 15 17
v -36 15 -17
v -36 15 -18
v -36 19 18
v -36 19 17
v -36 19 16
v -36 19 -16
v -36 19 -17
v -36 19 -18
v -36 20 17
v -36 20 16
v -36 20 -16
v -36 20 -17
v 38 0 21
v 38 0 17
v 38 0 -17
v 38 0 -21
v 38 11 20
v 38 11 17
v 38 11 -17
v 38 11 -20
v 38 15 19
v 38 15 17
v 38 15 -17
v 38 15 -19
v 38 19 20
v 38 19 19
v 38 19 -19
v 38 19 -20
v 38 24 21
v 38 24 17
v 38 24 -17
v 38 24 -21
v 39 15 17
v 39 15 -17
v 39 20 17
v 39 20 16
v 39 20 -16
v 39 20 -17
v 39 21 16
v 39 21 15
v 39 21 -15
v 39 21 -16
v 39 22 15
v 39 22 13
v 39 22 -13
v 39 22 -15
v 39 23 13
v 39 23 11
v 39 23 -11
v 39 23 -13
v 39 24 11
v 39 24 9
v 39 24 -9
v 39 24 -11
v 39 25 9
v 39 25 5
v 39 25 -5
v 39 25 -9
v 39 26 5
v 39 26 -5
v -39 15 17
v -39 15 -17
v -39 20 17
v -39 20 16
v -39 20 -16
v -39 20 -17
v -39 21 16
v -39 21 15
v -39 21 -15
v -39 21 -16
v -39 22 15
v -39 22 13
v -39 22 -13
v -39 22 -15
v -39 23 13
v -39 23 11
v -39 23 -11
v -39 23 -13
v -39 24 11
v -39 24 9
v -39 24 -9
v -39 24 -11
v -39 25 9
v -39 25 5
v -39 25 -5
v -39 25 -9
v -39 26 5
v -39 26 -5
v -38 0 21
v -38 0 17
v -38 0 -17
v -38 0 -21
v -38 11 20
v -38 11 17
v -38 11 -17
v -38 11 -20
v -38 15 19
v -38 15 17
v -38 15 -17
v -38 15 -19
v -38 19 20
v -38 19 19
v -38 19 -19
v -38 19 -20
v -38 24 21
v -38 24 17
v -38 24 -17
v -38 24 -21
v 36 15 18
v 36 15 17
v 36 15 -17
v 36 15 -18
v 36 19 18
v 36 19 17
v 36 19 16
v 36 19 -16
v 36 19 -17
v 36 19 -18
v 36 20 17
v 36 20 16
v 36 20 -16
v 36 20 -17
v 37 15 17
v 37 15 16
v 37 15 -16
v 37 15 -17
v 37 19 17
v 37 19 16
v 37 19 -16
v 37 19 -17
v 37 20 16
v 37 20 -16
v 38 15 16
v 38 15 -16
v 38 19 16
v 38 19 -16
v 40 11 17
v 40 11 -17
v 40 20 17
v 40 20 16
v 40 20 -16
v 40 20 -17
v 40 21 16
v 40 21 15
v 40 21 -15
v 40 21 -16
v 40 22 15
v 40 22 13
v 40 22 -13
v 40 22 -15
v 40 23 13
v 40 23 11
v 40 23 -11
v 40 23 -13
v 40 24 11
v 40 24 9
v 40 24 -9
v 40 24 -11
v 40 25 9
v 40 25 5
v 40 25 -5
v 40 25 -9
v 40 26 5
v 40 26 -5
v 42 0 21
v 42 0 17
v 42 0 -17
v 42 0 -21
v 42 24 21
v 42 24 17
v 42 24 -17
v 42 24 -21
v -42 0 21
v -42 24 21
v -38 0 21
v -38 24 21
v 38 0 21
v 38 24 21
v 42 0 21
v 42 24 21
v -38 11 20
v -38 19 20
v 38 11 20
v 38 19 20
v -36 15 18
v -36 19 18
v 36 15 18
v 36 19 18
v -37 15 17
v -37 19 17
v -36 15 17
v -36 19 17
v -36 20 17
v 36 15 17
v 36 19 17
v 36 20 17
v 37 15 17
v 37 19 17
v -40 20 16
v -40 21 16
v -39 20 16
v -39 21 16
v -38 15 16
v -38 19 16
v -37 15 16
v -37 19 16
v -37 20 16
v -36 19 16
v -36 20 16
v 36 19 16
v 36 20 16
v 37 15 16
v 37 19 16
v 37 20 16
v 38 15 16
v 38 19 16
v 39 20 16
v 39 21 16
v 40 20 16
v 40 21 16
v -40 21 15
v -40 22 15
v -39 21 15
v -39 22 15
v 39 21 15
v 39 22 15
v 40 21 15
v 40 22 15
v -40 22 13
v -40 23 13
v -39 22 13
v -39 23 13
v 39 22 13
v 39 23 13
v 40 22 13
v 40 23 13
v -40 23 11
v -40 24 11
v -39 23 11
v -39 24 11
v 39 23 11
v 39 24 11
v 40 23 11
v 40 24 11
v -40 24 9
v -40 25 9
v -39 24 9
v -39 25 9
v 39 24 9
v 39 25 9
v 40 24 9
v 40 25 9
v -40 25 5
v -40 26 5
v -39 25 5
v -39 26 5
v 39 25 5
v 39 26 5
v 40 25 5
v 40 26 5
v -42 0 -17
v -42 24 -17
v -40 11 -17
v -40 20 -17
v -39 15 -17
v -39 20 -17
v -38 0 -17
v -38 11 -17
v -38 15 -17
v -38 24 -17
v 38 0 -17
v 38 11 -17
v 38 15 -17
v 38 24 -17
v 39 15 -17
v 39 20 -17
v 40 11 -17
v 40 20 -17
v 42 0 -17
v 42 24 -17
v -38 15 -19
v -38 19 -19
v 38 15 -19
v 38 19 -19
v -38 15 19
v -38 19 19
v 38 15 19
v 38 19 19
v -42 0 17
v -42 24 17
v -40 11 17
v -40 20 17
v -39 15 17
v -39 20 17
v -38 0 17
v -38 11 17
v -38 15 17
v -38 24 17
v 38 0 17
v 38 11 17
v 38 15 17
v 38 24 17
v 39 15 17
v 39 20 17
v 40 11 17
v 40 20 17
v 42 0 17
v 42 24 17
v -40 25 -5
v -40 26 -5
v -39 25 -5
v -39 26 -5
v 39 25 -5
v 39 26 -5
v 40 25 -5
v 40 26 -5
v -40 24 -9
v -40 25 -9
v -39 24 -9
v -39 25 -9
v 39 24 -9
v 39 25 -9
v 40 24 -9
v 40 25 -9
v -40 23 -11
v -40 24 -11
v -39 23 -11
v -39 24 -11
v 39 23 -11
v 39 24 -11
v 40 23 -11
v 40 24 -11
v -40 22 -13
v -40 23 -13
v -39 22 -13
v -39 23 -13
v 39 22 -13
v 39 23 -13
v 40 22 -13
v 40 23 -13
v -40 21 -15
v -40 22 -15
v -39 21 -15
v -39 22 -15
v 39 21 -15
v 39 22 -15
v 40 21 -15
v 40 22 -15
v -40 20 -16
v -40 21 -16
v -39 20 -16
v -39 21 -16
v -38 15 -16
v -38 19 -16
v -37 15 -16
v -37 19 -16
v -37 20 -16
v -36 19 -16
v -36 20 -16
v 36 19 -16
v 36 20 -16
v 37 15 -16
v 37 19 -16
v 37 20 -16
v 38 15 -16
v 38 19 -16
v 39 20 -16
v 39 21 -16
v 40 20 -16
v 40 21 -16
v -37 15 -17
v -37 19 -17
v -36 15 -17
v -36 19 -17
v -36 20 -17
v 36 15 -17
v 36 19 -17
v 36 20 -17
v 37 15 -17
v 37 19 -17
v -36 15 -18
v -36 19 -18
v 36 15 -18
v 36 19 -18
v -38 11 -20
v -38 19 -20
v 38 11 -20
v 38 19 -20
v -42 0 -21
v -42 24 -21
v -38 0 -21
v -38 24 -21
v 38 0 -21
v 38 24 -21
v 42 0 -21
v 42 24 -21
v -42 0 21
v -38 0 21
v 38 0 21
v 42 0 21
v -42 0 17
v -38 0 17
v 38 0 17
v 42 0 17
v -42 0 -17
v -38 0 -17
v 38 0 -17
v 42 0 -17
v -42 0 -21
v -38 0 -21
v 38 0 -21
v 42 0 -21
v -38 11 20
v 38 11 20
v -40 11 17
v -38 11 17
v 38 11 17
v 40 11 17
v -40 11 -17
v -38 11 -17
v 38 11 -17
v 40 11 -17
v -38 11 -20
v 38 11 -20
v -38 15 19
v 38 15 19
v -36 15 18
v 36 15 18
v -39 15 17
v -38 15 17
v -37 15 17
v -36 15 17
v 36 15 17
v 37 15 17
v 38 15 17
v 39 15 17
v -38 15 16
v -37 15 16
v 37 15 16
v 38 15 16
v -38 15 -16
v -37 15 -16
v 37 15 -16
v 38 15 -16
v -39 15 -17
v -38 15 -17
v -37 15 -17
v -36 15 -17
v 36 15 -17
v 37 15 -17
v 38 15 -17
v 39 15 -17
v -36 15 -18
v 36 15 -18
v -38 15 -19
v 38 15 -19
v -38 19 20
v 38 19 20
v -38 19 19
v 38 19 19
v -36 19 18
v 36 19 18
v -37 19 17
v -36 19 17
v 36 19 17
v 37 19 17
v -38 19 16
v -37 19 16
v -36 19 16
v 36 19 16
v 37 19 16
v 38 19 16
v -38 19 -16
v -37 19 -16
v -36 19 -16
v 36 19 -16
v 37 19 -16
v 38 19 -16
v -37 19 -17
v -36 19 -17
v 36 19 -17
v 37 19 -17
v -36 19 -18
v 36 19 -18
v -38 19 -19
v 38 19 -19
v -38 19 -20
v 38 19 -20
v -40 20 17
v -39 20 17
v -36 20 17
v 36 20 17
v 39 20 17
v 40 20 17
v -40 20 16
v -39 20 16
v -37 20 16
v -36 20 16
v 36 20 16
v 37 20 16
v 39 20 16
v 40 20 16
v -40 20 -16
v -39 20 -16
v -37 20 -16
v -36 20 -16
v 36 20 -16
v 37 20 -16
v 39 20 -16
v 40 20 -16
v -40 20 -17
v -39 20 -17
v -36 20 -17
v 36 20 -17
v 39 20 -17
v 40 20 -17
v -40 21 16
v -39 21 16
v 39 21 16
v 40 21 16
v -40 21 15
v -39 21 15
v 39 21 15
v 40 21 15
v -40 21 -15
v -39 21 -15
v 39 21 -15
v 40 21 -15
v -40 21 -16
v -39 21 -16
v 39 21 -16
v 40 21 -16
v -40 22 15
v -39 22 15
v 39 22 15
v 40 22 15
v -40 22 13
v -39 22 13
v 39 22 13
v 40 22 13
v -40 22 -13
v -39 22 -13
v 39 22 -13
v 40 22 -13
v -40 22 -15
v -39 22 -15
v 39 22 -15
v 40 22 -15
v -40 23 13
v -39 23 13
v 39 23 13
v 40 23 13
v -40 23 11
v -39 23 11
v 39 23 11
v 40 23 11
v -40 23 -11
v -39 23 -11
v 39 23 -11
v 40 23 -11
v -40 23 -13
v -39 23 -13
v 39 23 -13
v 40 23 -13
v -42 24 21
v -38 24 21
v 38 24 21
v 42 24 21
v -42 24 17
v -38 24 17
v 38 24 17
v 42 24 17
v -40 24 11
v -39 24 11
v 39 24 11
v 40 24 11
v -40 24 9
v -39 24 9
v 39 24 9
v 40 24 9
v -40 24 -9
v -39 24 -9
v 39 24 -9
v 40 24 -9
v -40 24 -11
v -39 24 -11
v 39 24 -11
v 40 24 -11
v -42 24 -17
v -38 24 -17
v 38 24 -17
v 42 24 -17
v -42 24 -21
v -38 24 -21
v 38 24 -21
v 42 24 -21
v -40 25 9
v -39 25 9
v 39 25 9
v 40 25 9
v -40 25 5
v -39 25 5
v 39 25 5
v 40 25 5
v -40 25 -5
v -39 25 -5
v 39 25 -5
v 40 25 -5
v -40 25 -9
v -39 25 -9
v 39 25 -9
v 40 25 -9
v -40 26 5
v -39 26 5
v 39 26 5
v 40 26 5
v -40 26 -5
v -39 26 -5
v 39 26 -5
v 40 26 -5

# faces
f 5/1/1 2/1/1 1/1/1
f 6/1/1 2/1/1 5/1/1
f 7/1/1 4/1/1 3/1/1
f 8/1/1 4/1/1 7/1/1
f 11/1/1 10/1/1 9/1/1
f 12/1/1 10/1/1 11/1/1
f 13/1/1 10/1/1 12/1/1
f 14/1/1 10/1/1 13/1/1
f 15/1/1 13/1/1 12/1/1
f 16/1/1 13/1/1 15/1/1
f 17/1/1 13/1/1 16/1/1
f 18/1/1 13/1/1 17/1/1
f 19/1/1 17/1/1 16/1/1
f 20/1/1 17/1/1 19/1/1
f 21/1/1 17/1/1 20/1/1
f 22/1/1 17/1/1 21/1/1
f 23/1/1 21/1/1 20/1/1
f 24/1/1 21/1/1 23/1/1
f 25/1/1 21/1/1 24/1/1
f 26/1/1 21/1/1 25/1/1
f 27/1/1 25/1/1 24/1/1
f 28/1/1 25/1/1 27/1/1
f 29/1/1 25/1/1 28/1/1
f 30/1/1 25/1/1 29/1/1
f 31/1/1 29/1/1 28/1/1
f 32/1/1 29/1/1 31/1/1
f 33/1/1 29/1/1 32/1/1
f 34/1/1 29/1/1 33/1/1
f 35/1/1 33/1/1 32/1/1
f 36/1/1 33/1/1 35/1/1
f 39/1/1 38/1/1 37/1/1
f 40/1/1 38/1/1 39/1/1
f 45/1/1 42/1/1 41/1/1
f 46/1/1 42/1/1 45/1/1
f 47/1/1 44/1/1 43/1/1
f 48/1/1 44/1/1 47/1/1
f 49/1/1 47/1/1 46/1/1
f 50/1/1 47/1/1 49/1/1
f 55/1/1 52/1/1 51/1/1
f 56/1/1 52/1/1 55/1/1
f 59/1/1 54/1/1 53/1/1
f 60/1/1 54/1/1 59/1/1
f 61/1/1 57/1/1 56/1/1
f 62/1/1 57/1/1 61/1/1
f 63/1/1 59/1/1 58/1/1
f 64/1/1 59/1/1 63/1/1
f 69/1/1 66/1/1 65/1/1
f 70/1/1 66/1/1 69/1/1
f 71/1/1 68/1/1 67/1/1
f 72/1/1 68/1/1 71/1/1
f 77/1/1 69/1/1 65/1/1
f 78/1/1 74/1/1 73/1/1
f 79/1/1 76/1/1 75/1/1
f 80/1/1 68/1/1 72/1/1
f 81/1/1 78/1/1 77/1/1
f 81/1/1 77/1/1 65/1/1
f 82/1/1 74/1/1 78/1/1
f 82/1/1 78/1/1 81/1/1
f 83/1/1 79/1/1 75/1/1
f 83/1/1 80/1/1 79/1/1
f 84/1/1 68/1/1 80/1/1
f 84/1/1 80/1/1 83/1/1
f 87/1/1 86/1/1 85/1/1
f 88/1/1 86/1/1 87/1/1
f 89/1/1 86/1/1 88/1/1
f 90/1/1 86/1/1 89/1/1
f 91/1/1 89/1/1 88/1/1
f 92/1/1 89/1/1 91/1/1
f 93/1/1 89/1/1 92/1/1
f 94/1/1 89/1/1 93/1/1
f 95/1/1 93/1/1 92/1/1
f 96/1/1 93/1/1 95/1/1
f 97/1/1 93/1/1 96/1/1
f 98/1/1 93/1/1 97/1/1
f 99/1/1 97/1/1 96/1/1
f 100/1/1 97/1/1 99/1/1
f 101/1/1 97/1/1 100/1/1
f 102/1/1 97/1/1 101/1/1
f 103/1/1 101/1/1 100/1/1
f 104/1/1 101/1/1 103/1/1
f 105/1/1 101/1/1 104/1/1
f 106/1/1 101/1/1 105/1/1
f 107/1/1 105/1/1 104/1/1
f 108/1/1 105/1/1 107/1/1
f 109/1/1 105/1/1 108/1/1
f 110/1/1 105/1/1 109/1/1
f 111/1/1 109/1/1 108/1/1
f 112/1/1 109/1/1 111/1/1
f 113/1/2 114/1/2 115/1/2
f 115/1/2 114/1/2 116/1/2
f 116/1/2 114/1/2 117/1/2
f 117/1/2 114/1/2 118/1/2
f 116/1/2 117/1/2 119/1/2
f 119/1/2 117/1/2 120/1/2
f 120/1/2 117/1/2 121/1/2
f 121/1/2 117/1/2 122/1/2
f 120/1/2 121/1/2 123/1/2
f 123/1/2 121/1/2 124/1/2
f 124/1/2 121/1/2 125/1/2
f 125/1/2 121/1/2 126/1/2
f 124/1/2 125/1/2 127/1/2
f 127/1/2 125/1/2 128/1/2
f 128/1/2 125/1/2 129/1/2
f 129/1/2 125/1/2 130/1/2
f 128/1/2 129/1/2 131/1/2
f 131/1/2 129/1/2 132/1/2
f 132/1/2 129/1/2 133/1/2
f 133/1/2 129/1/2 134/1/2
f 132/1/2 133/1/2 135/1/2
f 135/1/2 133/1/2 136/1/2
f 136/1/2 133/1/2 137/1/2
f 137/1/2 133/1/2 138/1/2
f 136/1/2 137/1/2 139/1/2
f 139/1/2 137/1/2 140/1/2
f 141/1/2 142/1/2 145/1/2
f 145/1/2 142/1/2 146/1/2
f 143/1/2 144/1/2 147/1/2
f 147/1/2 144/1/2 148/1/2
f 141/1/2 145/1/2 153/1/2
f 149/1/2 150/1/2 154/1/2
f 151/1/2 152/1/2 155/1/2
f 148/1/2 144/1/2 156/1/2
f 153/1/2 154/1/2 157/1/2
f 141/1/2 153/1/2 157/1/2
f 154/1/2 150/1/2 158/1/2
f 157/1/2 154/1/2 158/1/2
f 151/1/2 155/1/2 159/1/2
f 155/1/2 156/1/2 159/1/2
f 156/1/2 144/1/2 160/1/2
f 159/1/2 156/1/2 160/1/2
f 161/1/2 162/1/2 165/1/2
f 165/1/2 162/1/2 166/1/2
f 163/1/2 164/1/2 169/1/2
f 169/1/2 164/1/2 170/1/2
f 166/1/2 167/1/2 171/1/2
f 171/1/2 167/1/2 172/1/2
f 168/1/2 169/1/2 173/1/2
f 173/1/2 169/1/2 174/1/2
f 175/1/2 176/1/2 179/1/2
f 179/1/2 176/1/2 180/1/2
f 177/1/2 178/1/2 181/1/2
f 181/1/2 178/1/2 182/1/2
f 180/1/2 181/1/2 183/1/2
f 183/1/2 181/1/2 184/1/2
f 185/1/2 186/1/2 187/1/2
f 187/1/2 186/1/2 188/1/2
f 189/1/2 190/1/2 191/1/2
f 191/1/2 190/1/2 192/1/2
f 192/1/2 190/1/2 193/1/2
f 193/1/2 190/1/2 194/1/2
f 192/1/2 193/1/2 195/1/2
f 195/1/2 193/1/2 196/1/2
f 196/1/2 193/1/2 197/1/2
f 197/1/2 193/1/2 198/1/2
f 196/1/2 197/1/2 199/1/2
f 199/1/2 197/1/2 200/1/2
f 200/1/2 197/1/2 201/1/2
f 201/1/2 197/1/2 202/1/2
f 200/1/2 201/1/2 203/1/2
f 203/1/2 201/1/2 204/1/2
f 204/1/2 201/1/2 205/1/2
f 205/1/2 201/1/2 206/1/2
f 204/1/2 205/1/2 207/1/2
f 207/1/2 205/1/2 208/1/2
f 208/1/2 205/1/2 209/1/2
f 209/1/2 205/1/2 210/1/2
f 208/1/2 209/1/2 211/1/2
f 211/1/2 209/1/2 212/1/2
f 212/1/2 209/1/2 213/1/2
f 213/1/2 209/1/2 214/1/2
f 212/1/2 213/1/2 215/1/2
f 215/1/2 213/1/2 216/1/2
f 217/1/2 218/1/2 221/1/2
f 221/1/2 218/1/2 222/1/2
f 219/1/2 220/1/2 223/1/2
f 223/1/2 220/1/2 224/1/2
f 227/1/3 226/1/3 225/1/3
f 228/1/3 226/1/3 227/1/3
f 231/1/3 230/1/3 229/1/3
f 232/1/3 230/1/3 231/1/3
f 235/1/3 234/1/3 233/1/3
f 236/1/3 234/1/3 235/1/3
f 239/1/3 238/1/3 237/1/3
f 240/1/3 238/1/3 239/1/3
f 243/1/3 242/1/3 241/1/3
f 244/1/3 242/1/3 243/1/3
f 247/1/3 245/1/3 244/1/3
f 248/1/3 245/1/3 247/1/3
f 249/1/3 247/1/3 246/1/3
f 250/1/3 247/1/3 249/1/3
f 253/1/3 252/1/3 251/1/3
f 254/1/3 252/1/3 253/1/3
f 257/1/3 256/1/3 255/1/3
f 258/1/3 256/1/3 257/1/3
f 260/1/3 259/1/3 258/1/3
f 261/1/3 259/1/3 260/1/3
f 265/1/3 263/1/3 262/1/3
f 266/1/3 263/1/3 265/1/3
f 267/1/3 265/1/3 264/1/3
f 268/1/3 265/1/3 267/1/3
f 271/1/3 270/1/3 269/1/3
f 272/1/3 270/1/3 271/1/3
f 275/1/3 274/1/3 273/1/3
f 276/1/3 274/1/3 275/1/3
f 279/1/3 278/1/3 277/1/3
f 280/1/3 278/1/3 279/1/3
f 283/1/3 282/1/3 281/1/3
f 284/1/3 282/1/3 283/1/3
f 287/1/3 286/1/3 285/1/3
f 288/1/3 286/1/3 287/1/3
f 291/1/3 290/1/3 289/1/3
f 292/1/3 290/1/3 291/1/3
f 295/1/3 294/1/3 293/1/3
f 296/1/3 294/1/3 295/1/3
f 299/1/3 298/1/3 297/1/3
f 300/1/3 298/1/3 299/1/3
f 303/1/3 302/1/3 301/1/3
f 304/1/3 302/1/3 303/1/3
f 307/1/3 306/1/3 305/1/3
f 308/1/3 306/1/3 307/1/3
f 311/1/3 310/1/3 309/1/3
f 312/1/3 310/1/3 311/1/3
f 315/1/3 314/1/3 313/1/3
f 316/1/3 314/1/3 315/1/3
f 318/1/3 314/1/3 316/1/3
f 319/1/3 315/1/3 313/1/3
f 320/1/3 315/1/3 319/1/3
f 321/1/3 318/1/3 317/1/3
f 322/1/3 314/1/3 318/1/3
f 322/1/3 318/1/3 321/1/3
f 327/1/3 326/1/3 325/1/3
f 328/1/3 326/1/3 327/1/3
f 329/1/3 324/1/3 323/1/3
f 330/1/3 326/1/3 328/1/3
f 331/1/3 329/1/3 323/1/3
f 331/1/3 330/1/3 329/1/3
f 332/1/3 326/1/3 330/1/3
f 332/1/3 330/1/3 331/1/3
f 335/1/3 334/1/3 333/1/3
f 336/1/3 334/1/3 335/1/3
f 337/1/4 338/1/4 339/1/4
f 339/1/4 338/1/4 340/1/4
f 341/1/4 342/1/4 343/1/4
f 343/1/4 342/1/4 344/1/4
f 344/1/4 342/1/4 346/1/4
f 341/1/4 343/1/4 347/1/4
f 347/1/4 343/1/4 348/1/4
f 345/1/4 346/1/4 349/1/4
f 346/1/4 342/1/4 350/1/4
f 349/1/4 346/1/4 350/1/4
f 353/1/4 354/1/4 355/1/4
f 355/1/4 354/1/4 356/1/4
f 351/1/4 352/1/4 357/1/4
f 356/1/4 354/1/4 358/1/4
f 351/1/4 357/1/4 359/1/4
f 357/1/4 358/1/4 359/1/4
f 358/1/4 354/1/4 360/1/4
f 359/1/4 358/1/4 360/1/4
f 361/1/4 362/1/4 363/1/4
f 363/1/4 362/1/4 364/1/4
f 365/1/4 366/1/4 367/1/4
f 367/1/4 366/1/4 368/1/4
f 369/1/4 370/1/4 371/1/4
f 371/1/4 370/1/4 372/1/4
f 373/1/4 374/1/4 375/1/4
f 375/1/4 374/1/4 376/1/4
f 377/1/4 378/1/4 379/1/4
f 379/1/4 378/1/4 380/1/4
f 381/1/4 382/1/4 383/1/4
f 383/1/4 382/1/4 384/1/4
f 385/1/4 386/1/4 387/1/4
f 387/1/4 386/1/4 388/1/4
f 389/1/4 390/1/4 391/1/4
f 391/1/4 390/1/4 392/1/4
f 393/1/4 394/1/4 395/1/4
f 395/1/4 394/1/4 396/1/4
f 397/1/4 398/1/4 399/1/4
f 399/1/4 398/1/4 400/1/4
f 401/1/4 402/1/4 403/1/4
f 403/1/4 402/1/4 404/1/4
f 405/1/4 406/1/4 407/1/4
f 407/1/4 406/1/4 408/1/4
f 408/1/4 409/1/4 410/1/4
f 410/1/4 409/1/4 411/1/4
f 412/1/4 413/1/4 415/1/4
f 415/1/4 413/1/4 416/1/4
f 414/1/4 415/1/4 417/1/4
f 417/1/4 415/1/4 418/1/4
f 419/1/4 420/1/4 421/1/4
f 421/1/4 420/1/4 422/1/4
f 423/1/4 424/1/4 425/1/4
f 425/1/4 424/1/4 426/1/4
f 426/1/4 427/1/4 429/1/4
f 429/1/4 427/1/4 430/1/4
f 428/1/4 429/1/4 431/1/4
f 431/1/4 429/1/4 432/1/4
f 433/1/4 434/1/4 435/1/4
f 435/1/4 434/1/4 436/1/4
f 437/1/4 438/1/4 439/1/4
f 439/1/4 438/1/4 440/1/4
f 441/1/4 442/1/4 443/1/4
f 443/1/4 442/1/4 444/1/4
f 445/1/4 446/1/4 447/1/4
f 447/1/4 446/1/4 448/1/4
f 453/1/5 450/1/5 449/1/5
f 454/1/5 450/1/5 453/1/5
f 455/1/5 452/1/5 451/1/5
f 456/1/5 452/1/5 455/1/5
f 461/1/5 458/1/5 457/1/5
f 462/1/5 458/1/5 461/1/5
f 463/1/5 460/1/5 459/1/5
f 464/1/5 460/1/5 463/1/5
f 468/1/5 466/1/5 465/1/5
f 469/1/5 466/1/5 468/1/5
f 471/1/5 468/1/5 467/1/5
f 471/1/5 470/1/5 469/1/5
f 471/1/5 469/1/5 468/1/5
f 472/1/5 470/1/5 471/1/5
f 473/1/5 470/1/5 472/1/5
f 474/1/5 470/1/5 473/1/5
f 475/1/5 473/1/5 472/1/5
f 476/1/5 473/1/5 475/1/5
f 477/1/6 478/1/6 479/1/6
f 479/1/6 478/1/6 480/1/6
f 477/1/6 479/1/6 482/1/6
f 482/1/6 479/1/6 483/1/6
f 483/1/6 479/1/6 484/1/6
f 480/1/6 478/1/6 485/1/6
f 485/1/6 478/1/6 486/1/6
f 486/1/6 478/1/6 487/1/6
f 481/1/6 482/1/6 489/1/6
f 482/1/6 483/1/6 489/1/6
f 489/1/6 483/1/6 490/1/6
f 487/1/6 488/1/6 491/1/6
f 486/1/6 487/1/6 491/1/6
f 491/1/6 488/1/6 492/1/6
f 481/1/6 489/1/6 493/1/6
f 492/1/6 488/1/6 496/1/6
f 493/1/6 494/1/6 497/1/6
f 481/1/6 493/1/6 497/1/6
f 497/1/6 494/1/6 498/1/6
f 498/1/6 494/1/6 499/1/6
f 495/1/6 496/1/6 502/1/6
f 496/1/6 488/1/6 503/1/6
f 502/1/6 496/1/6 503/1/6
f 503/1/6 488/1/6 504/1/6
f 499/1/6 500/1/6 505/1/6
f 498/1/6 499/1/6 505/1/6
f 501/1/6 502/1/6 506/1/6
f 502/1/6 503/1/6 506/1/6
f 498/1/6 505/1/6 507/1/6
f 505/1/6 506/1/6 507/1/6
f 506/1/6 503/1/6 508/1/6
f 507/1/6 506/1/6 508/1/6
f 509/1/6 510/1/6 511/1/6
f 511/1/6 510/1/6 512/1/6
f 513/1/6 514/1/6 516/1/6
f 516/1/6 514/1/6 517/1/6
f 515/1/6 516/1/6 520/1/6
f 520/1/6 516/1/6 521/1/6
f 517/1/6 518/1/6 522/1/6
f 522/1/6 518/1/6 523/1/6
f 519/1/6 520/1/6 525/1/6
f 525/1/6 520/1/6 526/1/6
f 523/1/6 524/1/6 529/1/6
f 529/1/6 524/1/6 530/1/6
f 526/1/6 527/1/6 531/1/6
f 531/1/6 527/1/6 532/1/6
f 528/1/6 529/1/6 533/1/6
f 533/1/6 529/1/6 534/1/6
f 532/1/6 533/1/6 535/1/6
f 535/1/6 533/1/6 536/1/6
f 537/1/6 538/1/6 539/1/6
f 539/1/6 538/1/6 540/1/6
f 541/1/6 542/1/6 547/1/6
f 547/1/6 542/1/6 548/1/6
f 543/1/6 544/1/6 550/1/6
f 550/1/6 544/1/6 551/1/6
f 545/1/6 546/1/6 553/1/6
f 553/1/6 546/1/6 554/1/6
f 551/1/6 552/1/6 557/1/6
f 549/1/6 550/1/6 557/1/6
f 550/1/6 551/1/6 557/1/6
f 557/1/6 552/1/6 558/1/6
f 558/1/6 552/1/6 559/1/6
f 559/1/6 552/1/6 560/1/6
f 555/1/6 556/1/6 563/1/6
f 563/1/6 556/1/6 564/1/6
f 558/1/6 559/1/6 565/1/6
f 565/1/6 559/1/6 566/1/6
f 561/1/6 562/1/6 567/1/6
f 567/1/6 562/1/6 568/1/6
f 569/1/6 570/1/6 573/1/6
f 573/1/6 570/1/6 574/1/6
f 571/1/6 572/1/6 575/1/6
f 575/1/6 572/1/6 576/1/6
f 577/1/6 578/1/6 581/1/6
f 581/1/6 578/1/6 582/1/6
f 579/1/6 580/1/6 583/1/6
f 583/1/6 580/1/6 584/1/6
f 585/1/6 586/1/6 589/1/6
f 589/1/6 586/1/6 590/1/6
f 587/1/6 588/1/6 591/1/6
f 591/1/6 588/1/6 592/1/6
f 593/1/6 594/1/6 597/1/6
f 597/1/6 594/1/6 598/1/6
f 595/1/6 596/1/6 599/1/6
f 599/1/6 596/1/6 600/1/6
f 601/1/6 602/1/6 605/1/6
f 605/1/6 602/1/6 606/1/6
f 603/1/6 604/1/6 607/1/6
f 607/1/6 604/1/6 608/1/6
f 609/1/6 610/1/6 613/1/6
f 613/1/6 610/1/6 614/1/6
f 611/1/6 612/1/6 615/1/6
f 615/1/6 612/1/6 616/1/6
f 617/1/6 618/1/6 621/1/6
f 621/1/6 618/1/6 622/1/6
f 619/1/6 620/1/6 623/1/6
f 623/1/6 620/1/6 624/1/6
f 625/1/6 626/1/6 629/1/6
f 629/1/6 626/1/6 630/1/6
f 627/1/6 628/1/6 631/1/6
f 631/1/6 628/1/6 632/1/6
f 633/1/6 634/1/6 637/1/6
f 637/1/6 634/1/6 638/1/6
f 635/1/6 636/1/6 639/1/6
f 639/1/6 636/1/6 640/1/6
f 641/1/6 642/1/6 645/1/6
f 645/1/6 642/1/6 646/1/6
f 643/1/6 644/1/6 647/1/6
f 647/1/6 644/1/6 648/1/6
f 649/1/6 650/1/6 653/1/6
f 653/1/6 650/1/6 654/1/6
f 651/1/6 652/1/6 655/1/6
f 655/1/6 652/1/6 656/1/6
f 657/1/6 658/1/6 661/1/6
f 661/1/6 658/1/6 662/1/6
f 659/1/6 660/1/6 663/1/6
f 663/1/6 660/1/6 664/1/6
f 665/1/6 666/1/6 669/1/6
f 669/1/6 666/1/6 670/1/6
f 667/1/6 668/1/6 671/1/6
f 671/1/6 668/1/6 672/1/6
