# MagicaVoxel @ Ephtracy

# group
g kitchenShelfMain

# material
mtllib kitchenShelfMain.mtl
usemtl palette

# normals
vn -1 0 0
vn 1 0 0
vn 0 0 1
vn 0 0 -1
vn 0 -1 0
vn 0 1 0

# texcoords
vt 0.306641 0.5

# verts
v -40 64 28
v -40 64 25
v -40 65 28
v -40 65 27
v -40 65 25
v -40 65 -28
v -40 66 27
v -40 66 -28
v -39 0 28
v -39 0 -28
v -39 1 28
v -39 1 27
v -39 2 27
v -39 2 26
v -39 3 26
v -39 3 24
v -39 63 25
v -39 63 24
v -39 64 25
v -39 65 25
v -39 65 -28
v -38 3 25
v -38 3 24
v -38 63 25
v -38 63 24
v -36 13 26
v -36 13 25
v -36 14 26
v -36 14 25
v -36 37 26
v -36 37 25
v -36 38 26
v -36 38 25
v -35 13 27
v -35 13 26
v -35 14 27
v -35 14 26
v -35 37 27
v -35 37 26
v -35 38 27
v -35 38 26
v 32 55 24
v 32 55 -6
v 32 56 24
v 32 56 -6
v 33 6 25
v 33 6 -26
v 33 44 25
v 33 44 -26
v 33 46 25
v 33 46 24
v 33 48 24
v 33 48 -26
v 33 55 24
v 33 55 -6
v 33 56 24
v 33 56 -6
v 33 61 25
v 33 61 -26
v 34 13 27
v 34 13 26
v 34 14 27
v 34 14 26
v 34 37 27
v 34 37 26
v 34 38 27
v 34 38 26
v 35 13 26
v 35 13 25
v 35 14 26
v 35 14 25
v 35 37 26
v 35 37 25
v 35 38 26
v 35 38 25
v 37 0 20
v 37 0 19
v 37 1 20
v 37 1 19
v -35 13 26
v -35 13 25
v -35 14 26
v -35 14 25
v -35 37 26
v -35 37 25
v -35 38 26
v -35 38 25
v -34 13 27
v -34 13 26
v -34 14 27
v -34 14 26
v -34 37 27
v -34 37 26
v -34 38 27
v -34 38 26
v -33 6 25
v -33 6 -26
v -33 44 25
v -33 44 -26
v -33 46 25
v -33 46 24
v -33 48 24
v -33 48 -26
v -33 55 24
v -33 55 -6
v -33 56 24
v -33 56 -6
v -33 61 25
v -33 61 -26
v -32 55 24
v -32 55 -6
v -32 56 24
v -32 56 -6
v 35 13 27
v 35 13 26
v 35 14 27
v 35 14 26
v 35 37 27
v 35 37 26
v 35 38 27
v 35 38 26
v 36 0 20
v 36 0 19
v 36 1 20
v 36 1 19
v 36 13 26
v 36 13 25
v 36 14 26
v 36 14 25
v 36 37 26
v 36 37 25
v 36 38 26
v 36 38 25
v 38 3 25
v 38 3 24
v 38 63 25
v 38 63 24
v 39 0 28
v 39 0 -28
v 39 1 28
v 39 1 27
v 39 2 27
v 39 2 26
v 39 3 26
v 39 3 24
v 39 63 25
v 39 63 24
v 39 64 25
v 39 65 25
v 39 65 -28
v 40 64 28
v 40 64 25
v 40 65 28
v 40 65 27
v 40 65 25
v 40 65 -28
v 40 66 27
v 40 66 -28
v -40 64 28
v -40 65 28
v -39 0 28
v -39 1 28
v 39 0 28
v 39 1 28
v 40 64 28
v 40 65 28
v -40 65 27
v -40 66 27
v -39 1 27
v -39 2 27
v -35 13 27
v -35 14 27
v -35 37 27
v -35 38 27
v -34 13 27
v -34 14 27
v -34 37 27
v -34 38 27
v 34 13 27
v 34 14 27
v 34 37 27
v 34 38 27
v 35 13 27
v 35 14 27
v 35 37 27
v 35 38 27
v 39 1 27
v 39 2 27
v 40 65 27
v 40 66 27
v -39 2 26
v -39 3 26
v -36 13 26
v -36 14 26
v -36 37 26
v -36 38 26
v -35 13 26
v -35 14 26
v -35 37 26
v -35 38 26
v 35 13 26
v 35 14 26
v 35 37 26
v 35 38 26
v 36 13 26
v 36 14 26
v 36 37 26
v 36 38 26
v 39 2 26
v 39 3 26
v -39 63 25
v -39 64 25
v -38 3 25
v -38 63 25
v -36 13 25
v -36 14 25
v -36 37 25
v -36 38 25
v -35 13 25
v -35 14 25
v -35 37 25
v -35 38 25
v -33 6 25
v -33 44 25
v -33 46 25
v -33 61 25
v 33 6 25
v 33 44 25
v 33 46 25
v 33 61 25
v 35 13 25
v 35 14 25
v 35 37 25
v 35 38 25
v 36 13 25
v 36 14 25
v 36 37 25
v 36 38 25
v 38 3 25
v 38 63 25
v 39 63 25
v 39 64 25
v -39 3 24
v -39 63 24
v -38 3 24
v -38 63 24
v -33 46 24
v -33 48 24
v -33 55 24
v -33 56 24
v -32 55 24
v -32 56 24
v 32 55 24
v 32 56 24
v 33 46 24
v 33 48 24
v 33 55 24
v 33 56 24
v 38 3 24
v 38 63 24
v 39 3 24
v 39 63 24
v 36 0 19
v 36 1 19
v 37 0 19
v 37 1 19
v -33 6 -26
v -33 44 -26
v -33 48 -26
v -33 61 -26
v 33 6 -26
v 33 44 -26
v 33 48 -26
v 33 61 -26
v -35 13 26
v -35 14 26
v -35 37 26
v -35 38 26
v -34 13 26
v -34 14 26
v -34 37 26
v -34 38 26
v 34 13 26
v 34 14 26
v 34 37 26
v 34 38 26
v 35 13 26
v 35 14 26
v 35 37 26
v 35 38 26
v -40 64 25
v -40 65 25
v -39 64 25
v -39 65 25
v 39 64 25
v 39 65 25
v 40 64 25
v 40 65 25
v 36 0 20
v 36 1 20
v 37 0 20
v 37 1 20
v -33 55 -6
v -33 56 -6
v -32 55 -6
v -32 56 -6
v 32 55 -6
v 32 56 -6
v 33 55 -6
v 33 56 -6
v -40 65 -28
v -40 66 -28
v -39 0 -28
v -39 65 -28
v 39 0 -28
v 39 65 -28
v 40 65 -28
v 40 66 -28
v -39 0 28
v 39 0 28
v 36 0 20
v 37 0 20
v 36 0 19
v 37 0 19
v -39 0 -28
v 39 0 -28
v 36 1 20
v 37 1 20
v 36 1 19
v 37 1 19
v -35 13 27
v -34 13 27
v 34 13 27
v 35 13 27
v -36 13 26
v -35 13 26
v -34 13 26
v 34 13 26
v 35 13 26
v 36 13 26
v -36 13 25
v -35 13 25
v 35 13 25
v 36 13 25
v -35 37 27
v -34 37 27
v 34 37 27
v 35 37 27
v -36 37 26
v -35 37 26
v -34 37 26
v 34 37 26
v 35 37 26
v 36 37 26
v -36 37 25
v -35 37 25
v 35 37 25
v 36 37 25
v -33 44 25
v 33 44 25
v -33 44 -26
v 33 44 -26
v -33 55 24
v -32 55 24
v 32 55 24
v 33 55 24
v -33 55 -6
v -32 55 -6
v 32 55 -6
v 33 55 -6
v -33 61 25
v 33 61 25
v -33 61 -26
v 33 61 -26
v -39 63 25
v -38 63 25
v 38 63 25
v 39 63 25
v -39 63 24
v -38 63 24
v 38 63 24
v 39 63 24
v -40 64 28
v 40 64 28
v -40 64 25
v -39 64 25
v 39 64 25
v 40 64 25
v -40 65 25
v -39 65 25
v 39 65 25
v 40 65 25
v -40 65 -28
v -39 65 -28
v 39 65 -28
v 40 65 -28
v -39 1 28
v 39 1 28
v -39 1 27
v 39 1 27
v -39 2 27
v 39 2 27
v -39 2 26
v 39 2 26
v -39 3 26
v 39 3 26
v -38 3 25
v 38 3 25
v -39 3 24
v -38 3 24
v 38 3 24
v 39 3 24
v -33 6 25
v 33 6 25
v -33 6 -26
v 33 6 -26
v -35 14 27
v -34 14 27
v 34 14 27
v 35 14 27
v -36 14 26
v -35 14 26
v -34 14 26
v 34 14 26
v 35 14 26
v 36 14 26
v -36 14 25
v -35 14 25
v 35 14 25
v 36 14 25
v -35 38 27
v -34 38 27
v 34 38 27
v 35 38 27
v -36 38 26
v -35 38 26
v -34 38 26
v 34 38 26
v 35 38 26
v 36 38 26
v -36 38 25
v -35 38 25
v 35 38 25
v 36 38 25
v -33 46 25
v 33 46 25
v -33 46 24
v 33 46 24
v -33 48 24
v 33 48 24
v -33 48 -26
v 33 48 -26
v -33 56 24
v -32 56 24
v 32 56 24
v 33 56 24
v -33 56 -6
v -32 56 -6
v 32 56 -6
v 33 56 -6
v -40 65 28
v 40 65 28
v -40 65 27
v 40 65 27
v -40 66 27
v 40 66 27
v -40 66 -28
v 40 66 -28

# faces
f 3/1/1 2/1/1 1/1/1
f 4/1/1 2/1/1 3/1/1
f 5/1/1 2/1/1 4/1/1
f 7/1/1 6/1/1 5/1/1
f 7/1/1 5/1/1 4/1/1
f 8/1/1 6/1/1 7/1/1
f 11/1/1 10/1/1 9/1/1
f 12/1/1 10/1/1 11/1/1
f 13/1/1 10/1/1 12/1/1
f 14/1/1 10/1/1 13/1/1
f 15/1/1 10/1/1 14/1/1
f 16/1/1 10/1/1 15/1/1
f 18/1/1 10/1/1 16/1/1
f 19/1/1 18/1/1 17/1/1
f 20/1/1 18/1/1 19/1/1
f 21/1/1 10/1/1 18/1/1
f 21/1/1 18/1/1 20/1/1
f 24/1/1 23/1/1 22/1/1
f 25/1/1 23/1/1 24/1/1
f 28/1/1 27/1/1 26/1/1
f 29/1/1 27/1/1 28/1/1
f 32/1/1 31/1/1 30/1/1
f 33/1/1 31/1/1 32/1/1
f 36/1/1 35/1/1 34/1/1
f 37/1/1 35/1/1 36/1/1
f 40/1/1 39/1/1 38/1/1
f 41/1/1 39/1/1 40/1/1
f 44/1/1 43/1/1 42/1/1
f 45/1/1 43/1/1 44/1/1
f 48/1/1 47/1/1 46/1/1
f 49/1/1 47/1/1 48/1/1
f 52/1/1 51/1/1 50/1/1
f 54/1/1 52/1/1 50/1/1
f 54/1/1 53/1/1 52/1/1
f 55/1/1 53/1/1 54/1/1
f 56/1/1 54/1/1 50/1/1
f 57/1/1 53/1/1 55/1/1
f 58/1/1 56/1/1 50/1/1
f 58/1/1 57/1/1 56/1/1
f 59/1/1 53/1/1 57/1/1
f 59/1/1 57/1/1 58/1/1
f 62/1/1 61/1/1 60/1/1
f 63/1/1 61/1/1 62/1/1
f 66/1/1 65/1/1 64/1/1
f 67/1/1 65/1/1 66/1/1
f 70/1/1 69/1/1 68/1/1
f 71/1/1 69/1/1 70/1/1
f 74/1/1 73/1/1 72/1/1
f 75/1/1 73/1/1 74/1/1
f 78/1/1 77/1/1 76/1/1
f 79/1/1 77/1/1 78/1/1
f 80/1/2 81/1/2 82/1/2
f 82/1/2 81/1/2 83/1/2
f 84/1/2 85/1/2 86/1/2
f 86/1/2 85/1/2 87/1/2
f 88/1/2 89/1/2 90/1/2
f 90/1/2 89/1/2 91/1/2
f 92/1/2 93/1/2 94/1/2
f 94/1/2 93/1/2 95/1/2
f 96/1/2 97/1/2 98/1/2
f 98/1/2 97/1/2 99/1/2
f 100/1/2 101/1/2 102/1/2
f 100/1/2 102/1/2 104/1/2
f 102/1/2 103/1/2 104/1/2
f 104/1/2 103/1/2 105/1/2
f 100/1/2 104/1/2 106/1/2
f 105/1/2 103/1/2 107/1/2
f 100/1/2 106/1/2 108/1/2
f 106/1/2 107/1/2 108/1/2
f 107/1/2 103/1/2 109/1/2
f 108/1/2 107/1/2 109/1/2
f 110/1/2 111/1/2 112/1/2
f 112/1/2 111/1/2 113/1/2
f 114/1/2 115/1/2 116/1/2
f 116/1/2 115/1/2 117/1/2
f 118/1/2 119/1/2 120/1/2
f 120/1/2 119/1/2 121/1/2
f 122/1/2 123/1/2 124/1/2
f 124/1/2 123/1/2 125/1/2
f 126/1/2 127/1/2 128/1/2
f 128/1/2 127/1/2 129/1/2
f 130/1/2 131/1/2 132/1/2
f 132/1/2 131/1/2 133/1/2
f 134/1/2 135/1/2 136/1/2
f 136/1/2 135/1/2 137/1/2
f 138/1/2 139/1/2 140/1/2
f 140/1/2 139/1/2 141/1/2
f 141/1/2 139/1/2 142/1/2
f 142/1/2 139/1/2 143/1/2
f 143/1/2 139/1/2 144/1/2
f 144/1/2 139/1/2 145/1/2
f 145/1/2 139/1/2 147/1/2
f 146/1/2 147/1/2 148/1/2
f 148/1/2 147/1/2 149/1/2
f 147/1/2 139/1/2 150/1/2
f 149/1/2 147/1/2 150/1/2
f 151/1/2 152/1/2 153/1/2
f 153/1/2 152/1/2 154/1/2
f 154/1/2 152/1/2 155/1/2
f 155/1/2 156/1/2 157/1/2
f 154/1/2 155/1/2 157/1/2
f 157/1/2 156/1/2 158/1/2
f 163/1/3 162/1/3 161/1/3
f 164/1/3 162/1/3 163/1/3
f 165/1/3 160/1/3 159/1/3
f 166/1/3 160/1/3 165/1/3
f 175/1/3 172/1/3 171/1/3
f 176/1/3 172/1/3 175/1/3
f 177/1/3 174/1/3 173/1/3
f 178/1/3 174/1/3 177/1/3
f 183/1/3 180/1/3 179/1/3
f 184/1/3 180/1/3 183/1/3
f 185/1/3 182/1/3 181/1/3
f 186/1/3 182/1/3 185/1/3
f 187/1/3 170/1/3 169/1/3
f 188/1/3 170/1/3 187/1/3
f 189/1/3 168/1/3 167/1/3
f 190/1/3 168/1/3 189/1/3
f 197/1/3 194/1/3 193/1/3
f 198/1/3 194/1/3 197/1/3
f 199/1/3 196/1/3 195/1/3
f 200/1/3 196/1/3 199/1/3
f 205/1/3 202/1/3 201/1/3
f 206/1/3 202/1/3 205/1/3
f 207/1/3 204/1/3 203/1/3
f 208/1/3 204/1/3 207/1/3
f 209/1/3 192/1/3 191/1/3
f 210/1/3 192/1/3 209/1/3
f 214/1/3 212/1/3 211/1/3
f 215/1/3 214/1/3 213/1/3
f 216/1/3 214/1/3 215/1/3
f 217/1/3 214/1/3 216/1/3
f 218/1/3 214/1/3 217/1/3
f 219/1/3 215/1/3 213/1/3
f 220/1/3 217/1/3 216/1/3
f 221/1/3 217/1/3 220/1/3
f 222/1/3 214/1/3 218/1/3
f 223/1/3 221/1/3 220/1/3
f 223/1/3 222/1/3 221/1/3
f 223/1/3 219/1/3 213/1/3
f 223/1/3 220/1/3 219/1/3
f 224/1/3 214/1/3 222/1/3
f 224/1/3 222/1/3 223/1/3
f 225/1/3 214/1/3 224/1/3
f 226/1/3 214/1/3 225/1/3
f 227/1/3 223/1/3 213/1/3
f 228/1/3 225/1/3 224/1/3
f 229/1/3 225/1/3 228/1/3
f 230/1/3 214/1/3 226/1/3
f 231/1/3 229/1/3 228/1/3
f 231/1/3 230/1/3 229/1/3
f 231/1/3 228/1/3 227/1/3
f 232/1/3 230/1/3 231/1/3
f 233/1/3 230/1/3 232/1/3
f 234/1/3 230/1/3 233/1/3
f 235/1/3 231/1/3 227/1/3
f 236/1/3 233/1/3 232/1/3
f 237/1/3 233/1/3 236/1/3
f 238/1/3 230/1/3 234/1/3
f 239/1/3 227/1/3 213/1/3
f 239/1/3 238/1/3 237/1/3
f 239/1/3 237/1/3 236/1/3
f 239/1/3 235/1/3 227/1/3
f 239/1/3 236/1/3 235/1/3
f 240/1/3 212/1/3 214/1/3
f 240/1/3 238/1/3 239/1/3
f 240/1/3 214/1/3 230/1/3
f 240/1/3 230/1/3 238/1/3
f 241/1/3 212/1/3 240/1/3
f 242/1/3 212/1/3 241/1/3
f 245/1/3 244/1/3 243/1/3
f 246/1/3 244/1/3 245/1/3
f 251/1/3 250/1/3 249/1/3
f 252/1/3 250/1/3 251/1/3
f 255/1/3 248/1/3 247/1/3
f 256/1/3 248/1/3 255/1/3
f 257/1/3 254/1/3 253/1/3
f 258/1/3 254/1/3 257/1/3
f 261/1/3 260/1/3 259/1/3
f 262/1/3 260/1/3 261/1/3
f 265/1/3 264/1/3 263/1/3
f 266/1/3 264/1/3 265/1/3
f 271/1/3 268/1/3 267/1/3
f 272/1/3 268/1/3 271/1/3
f 273/1/3 270/1/3 269/1/3
f 274/1/3 270/1/3 273/1/3
f 275/1/4 276/1/4 279/1/4
f 279/1/4 276/1/4 280/1/4
f 277/1/4 278/1/4 281/1/4
f 281/1/4 278/1/4 282/1/4
f 283/1/4 284/1/4 287/1/4
f 287/1/4 284/1/4 288/1/4
f 285/1/4 286/1/4 289/1/4
f 289/1/4 286/1/4 290/1/4
f 291/1/4 292/1/4 293/1/4
f 293/1/4 292/1/4 294/1/4
f 295/1/4 296/1/4 297/1/4
f 297/1/4 296/1/4 298/1/4
f 299/1/4 300/1/4 301/1/4
f 301/1/4 300/1/4 302/1/4
f 303/1/4 304/1/4 305/1/4
f 305/1/4 304/1/4 306/1/4
f 307/1/4 308/1/4 309/1/4
f 309/1/4 308/1/4 310/1/4
f 311/1/4 312/1/4 314/1/4
f 313/1/4 314/1/4 315/1/4
f 314/1/4 312/1/4 316/1/4
f 315/1/4 314/1/4 316/1/4
f 316/1/4 312/1/4 317/1/4
f 317/1/4 312/1/4 318/1/4
f 321/1/5 320/1/5 319/1/5
f 322/1/5 320/1/5 321/1/5
f 323/1/5 321/1/5 319/1/5
f 324/1/5 320/1/5 322/1/5
f 325/1/5 323/1/5 319/1/5
f 325/1/5 324/1/5 323/1/5
f 326/1/5 320/1/5 324/1/5
f 326/1/5 324/1/5 325/1/5
f 329/1/5 328/1/5 327/1/5
f 330/1/5 328/1/5 329/1/5
f 336/1/5 332/1/5 331/1/5
f 337/1/5 332/1/5 336/1/5
f 338/1/5 334/1/5 333/1/5
f 339/1/5 334/1/5 338/1/5
f 341/1/5 336/1/5 335/1/5
f 342/1/5 336/1/5 341/1/5
f 343/1/5 340/1/5 339/1/5
f 344/1/5 340/1/5 343/1/5
f 350/1/5 346/1/5 345/1/5
f 351/1/5 346/1/5 350/1/5
f 352/1/5 348/1/5 347/1/5
f 353/1/5 348/1/5 352/1/5
f 355/1/5 350/1/5 349/1/5
f 356/1/5 350/1/5 355/1/5
f 357/1/5 354/1/5 353/1/5
f 358/1/5 354/1/5 357/1/5
f 361/1/5 360/1/5 359/1/5
f 362/1/5 360/1/5 361/1/5
f 367/1/5 364/1/5 363/1/5
f 368/1/5 364/1/5 367/1/5
f 369/1/5 366/1/5 365/1/5
f 370/1/5 366/1/5 369/1/5
f 373/1/5 372/1/5 371/1/5
f 374/1/5 372/1/5 373/1/5
f 379/1/5 376/1/5 375/1/5
f 380/1/5 376/1/5 379/1/5
f 381/1/5 378/1/5 377/1/5
f 382/1/5 378/1/5 381/1/5
f 385/1/5 384/1/5 383/1/5
f 386/1/5 384/1/5 385/1/5
f 387/1/5 384/1/5 386/1/5
f 388/1/5 384/1/5 387/1/5
f 393/1/5 390/1/5 389/1/5
f 394/1/5 390/1/5 393/1/5
f 395/1/5 392/1/5 391/1/5
f 396/1/5 392/1/5 395/1/5
f 397/1/6 398/1/6 399/1/6
f 399/1/6 398/1/6 400/1/6
f 401/1/6 402/1/6 403/1/6
f 403/1/6 402/1/6 404/1/6
f 405/1/6 406/1/6 407/1/6
f 407/1/6 406/1/6 408/1/6
f 405/1/6 407/1/6 409/1/6
f 409/1/6 407/1/6 410/1/6
f 408/1/6 406/1/6 411/1/6
f 411/1/6 406/1/6 412/1/6
f 413/1/6 414/1/6 415/1/6
f 415/1/6 414/1/6 416/1/6
f 417/1/6 418/1/6 422/1/6
f 422/1/6 418/1/6 423/1/6
f 419/1/6 420/1/6 424/1/6
f 424/1/6 420/1/6 425/1/6
f 421/1/6 422/1/6 427/1/6
f 427/1/6 422/1/6 428/1/6
f 425/1/6 426/1/6 429/1/6
f 429/1/6 426/1/6 430/1/6
f 431/1/6 432/1/6 436/1/6
f 436/1/6 432/1/6 437/1/6
f 433/1/6 434/1/6 438/1/6
f 438/1/6 434/1/6 439/1/6
f 435/1/6 436/1/6 441/1/6
f 441/1/6 436/1/6 442/1/6
f 439/1/6 440/1/6 443/1/6
f 443/1/6 440/1/6 444/1/6
f 445/1/6 446/1/6 447/1/6
f 447/1/6 446/1/6 448/1/6
f 449/1/6 450/1/6 451/1/6
f 451/1/6 450/1/6 452/1/6
f 453/1/6 454/1/6 457/1/6
f 457/1/6 454/1/6 458/1/6
f 455/1/6 456/1/6 459/1/6
f 459/1/6 456/1/6 460/1/6
f 461/1/6 462/1/6 463/1/6
f 463/1/6 462/1/6 464/1/6
f 465/1/6 466/1/6 467/1/6
f 467/1/6 466/1/6 468/1/6
