# MagicaVoxel @ Ephtracy

# group
g fridgeBottomDoors

# material
mtllib fridgeBottomDoors.mtl
usemtl palette

# normals
vn -1 0 0
vn 1 0 0
vn 0 0 1
vn 0 0 -1
vn 0 -1 0
vn 0 1 0

# texcoords
vt 0.306641 0.5

# verts
v -25 1 -0
v -25 1 -1
v -25 79 -0
v -25 79 -1
v -24 0 -0
v -24 0 -1
v -24 1 -0
v -24 1 -1
v -24 3 1
v -24 3 -0
v -24 3 -1
v -24 3 -4
v -24 14 -1
v -24 14 -4
v -24 21 -1
v -24 21 -4
v -24 38 -1
v -24 38 -4
v -24 45 -1
v -24 45 -4
v -24 63 -1
v -24 63 -4
v -24 69 -1
v -24 69 -4
v -24 78 1
v -24 78 -0
v -24 78 -1
v -24 78 -4
v -24 79 -0
v -24 79 -1
v -24 80 -0
v -24 80 -1
v -23 2 1
v -23 2 -0
v -23 2 -1
v -23 2 -4
v -23 3 1
v -23 3 -0
v -23 3 -1
v -23 3 -4
v -23 16 -2
v -23 16 -3
v -23 18 -1
v -23 18 -2
v -23 19 -1
v -23 19 -3
v -23 40 -2
v -23 40 -3
v -23 42 -1
v -23 42 -2
v -23 43 -1
v -23 43 -3
v -23 65 -2
v -23 65 -3
v -23 67 -1
v -23 67 -2
v -23 68 -1
v -23 68 -3
v -23 78 1
v -23 78 -0
v -23 78 -1
v -23 78 -4
v -23 79 1
v -23 79 -0
v -23 79 -1
v -23 79 -4
v -22 14 -1
v -22 14 -4
v -22 15 -1
v -22 15 -4
v -22 20 -1
v -22 20 -4
v -22 21 -1
v -22 21 -4
v -22 38 -1
v -22 38 -4
v -22 39 -1
v -22 39 -4
v -22 44 -1
v -22 44 -4
v -22 45 -1
v -22 45 -4
v -22 63 -1
v -22 63 -4
v -22 64 -1
v -22 64 -4
v -21 15 -1
v -21 15 -4
v -21 16 -1
v -21 16 -4
v -21 19 -1
v -21 19 -4
v -21 20 -1
v -21 20 -4
v -21 39 -1
v -21 39 -4
v -21 40 -1
v -21 40 -4
v -21 43 -1
v -21 43 -4
v -21 44 -1
v -21 44 -4
v -21 64 -1
v -21 64 -4
v -21 65 -1
v -21 65 -4
v -21 68 -1
v -21 68 -4
v -21 69 -1
v -21 69 -4
v -20 16 -1
v -20 16 -4
v -20 19 -1
v -20 19 -4
v -20 40 -1
v -20 40 -4
v -20 43 -1
v -20 43 -4
v -20 65 -1
v -20 65 -4
v -20 68 -1
v -20 68 -4
v 19 40 2
v 19 40 1
v 19 42 3
v 19 42 2
v 19 43 2
v 19 43 1
v 19 44 4
v 19 44 3
v 19 45 3
v 19 45 2
v 19 53 3
v 19 53 2
v 19 54 4
v 19 54 3
v 19 55 2
v 19 55 1
v 19 56 3
v 19 56 2
v 19 58 2
v 19 58 1
v -22 16 -2
v -22 16 -3
v -22 18 -1
v -22 18 -2
v -22 19 -1
v -22 19 -3
v -22 40 -2
v -22 40 -3
v -22 42 -1
v -22 42 -2
v -22 43 -1
v -22 43 -3
v -22 65 -2
v -22 65 -3
v -22 67 -1
v -22 67 -2
v -22 68 -1
v -22 68 -3
v 20 40 2
v 20 40 1
v 20 42 3
v 20 42 2
v 20 43 2
v 20 43 1
v 20 44 4
v 20 44 3
v 20 45 3
v 20 45 2
v 20 53 3
v 20 53 2
v 20 54 4
v 20 54 3
v 20 55 2
v 20 55 1
v 20 56 3
v 20 56 2
v 20 58 2
v 20 58 1
v 23 2 1
v 23 2 -0
v 23 2 -1
v 23 2 -4
v 23 3 1
v 23 3 -0
v 23 3 -1
v 23 3 -4
v 23 78 1
v 23 78 -0
v 23 78 -1
v 23 78 -4
v 23 79 1
v 23 79 -0
v 23 79 -1
v 23 79 -4
v 24 0 -0
v 24 0 -1
v 24 1 -0
v 24 1 -1
v 24 3 1
v 24 3 -0
v 24 3 -1
v 24 3 -4
v 24 78 1
v 24 78 -0
v 24 78 -1
v 24 78 -4
v 24 79 -0
v 24 79 -1
v 24 80 -0
v 24 80 -1
v 25 1 -0
v 25 1 -1
v 25 79 -0
v 25 79 -1
v 19 44 4
v 19 54 4
v 20 44 4
v 20 54 4
v 19 42 3
v 19 44 3
v 19 54 3
v 19 56 3
v 20 42 3
v 20 44 3
v 20 54 3
v 20 56 3
v 19 40 2
v 19 42 2
v 19 56 2
v 19 58 2
v 20 40 2
v 20 42 2
v 20 56 2
v 20 58 2
v -24 3 1
v -24 78 1
v -23 2 1
v -23 3 1
v -23 78 1
v -23 79 1
v 19 40 1
v 19 43 1
v 19 55 1
v 19 58 1
v 20 40 1
v 20 43 1
v 20 55 1
v 20 58 1
v 23 2 1
v 23 3 1
v 23 78 1
v 23 79 1
v 24 3 1
v 24 78 1
v -25 1 -0
v -25 79 -0
v -24 0 -0
v -24 1 -0
v -24 3 -0
v -24 78 -0
v -24 79 -0
v -24 80 -0
v -23 2 -0
v -23 3 -0
v -23 78 -0
v -23 79 -0
v 23 2 -0
v 23 3 -0
v 23 78 -0
v 23 79 -0
v 24 0 -0
v 24 1 -0
v 24 3 -0
v 24 78 -0
v 24 79 -0
v 24 80 -0
v 25 1 -0
v 25 79 -0
v -23 16 -2
v -23 18 -2
v -23 40 -2
v -23 42 -2
v -23 65 -2
v -23 67 -2
v -22 16 -2
v -22 18 -2
v -22 40 -2
v -22 42 -2
v -22 65 -2
v -22 67 -2
v 19 45 3
v 19 53 3
v 20 45 3
v 20 53 3
v 19 43 2
v 19 45 2
v 19 53 2
v 19 55 2
v 20 43 2
v 20 45 2
v 20 53 2
v 20 55 2
v -25 1 -1
v -25 79 -1
v -24 0 -1
v -24 1 -1
v -24 3 -1
v -24 14 -1
v -24 21 -1
v -24 38 -1
v -24 45 -1
v -24 63 -1
v -24 69 -1
v -24 78 -1
v -24 79 -1
v -24 80 -1
v -23 2 -1
v -23 3 -1
v -23 18 -1
v -23 19 -1
v -23 42 -1
v -23 43 -1
v -23 67 -1
v -23 68 -1
v -23 78 -1
v -23 79 -1
v -22 14 -1
v -22 15 -1
v -22 18 -1
v -22 19 -1
v -22 20 -1
v -22 21 -1
v -22 38 -1
v -22 39 -1
v -22 42 -1
v -22 43 -1
v -22 44 -1
v -22 45 -1
v -22 63 -1
v -22 64 -1
v -22 67 -1
v -22 68 -1
v -21 15 -1
v -21 16 -1
v -21 19 -1
v -21 20 -1
v -21 39 -1
v -21 40 -1
v -21 43 -1
v -21 44 -1
v -21 64 -1
v -21 65 -1
v -21 68 -1
v -21 69 -1
v -20 16 -1
v -20 19 -1
v -20 40 -1
v -20 43 -1
v -20 65 -1
v -20 68 -1
v 23 2 -1
v 23 3 -1
v 23 78 -1
v 23 79 -1
v 24 0 -1
v 24 1 -1
v 24 3 -1
v 24 78 -1
v 24 79 -1
v 24 80 -1
v 25 1 -1
v 25 79 -1
v -23 16 -3
v -23 19 -3
v -23 40 -3
v -23 43 -3
v -23 65 -3
v -23 68 -3
v -22 16 -3
v -22 19 -3
v -22 40 -3
v -22 43 -3
v -22 65 -3
v -22 68 -3
v -24 3 -4
v -24 14 -4
v -24 21 -4
v -24 38 -4
v -24 45 -4
v -24 63 -4
v -24 69 -4
v -24 78 -4
v -23 2 -4
v -23 3 -4
v -23 78 -4
v -23 79 -4
v -22 14 -4
v -22 15 -4
v -22 20 -4
v -22 21 -4
v -22 38 -4
v -22 39 -4
v -22 44 -4
v -22 45 -4
v -22 63 -4
v -22 64 -4
v -21 15 -4
v -21 16 -4
v -21 19 -4
v -21 20 -4
v -21 39 -4
v -21 40 -4
v -21 43 -4
v -21 44 -4
v -21 64 -4
v -21 65 -4
v -21 68 -4
v -21 69 -4
v -20 16 -4
v -20 19 -4
v -20 40 -4
v -20 43 -4
v -20 65 -4
v -20 68 -4
v 23 2 -4
v 23 3 -4
v 23 78 -4
v 23 79 -4
v 24 3 -4
v 24 78 -4
v -24 0 -0
v 24 0 -0
v -24 0 -1
v 24 0 -1
v -25 1 -0
v -24 1 -0
v 24 1 -0
v 25 1 -0
v -25 1 -1
v -24 1 -1
v 24 1 -1
v 25 1 -1
v -23 2 1
v 23 2 1
v -23 2 -0
v 23 2 -0
v -23 2 -1
v 23 2 -1
v -23 2 -4
v 23 2 -4
v -24 3 1
v -23 3 1
v 23 3 1
v 24 3 1
v -24 3 -0
v -23 3 -0
v 23 3 -0
v 24 3 -0
v -24 3 -1
v -23 3 -1
v 23 3 -1
v 24 3 -1
v -24 3 -4
v -23 3 -4
v 23 3 -4
v 24 3 -4
v -23 16 -2
v -22 16 -2
v -23 16 -3
v -22 16 -3
v -23 18 -1
v -22 18 -1
v -23 18 -2
v -22 18 -2
v -21 19 -1
v -20 19 -1
v -21 19 -4
v -20 19 -4
v -22 20 -1
v -21 20 -1
v -22 20 -4
v -21 20 -4
v -24 21 -1
v -22 21 -1
v -24 21 -4
v -22 21 -4
v 19 40 2
v 20 40 2
v 19 40 1
v 20 40 1
v -23 40 -2
v -22 40 -2
v -23 40 -3
v -22 40 -3
v 19 42 3
v 20 42 3
v 19 42 2
v 20 42 2
v -23 42 -1
v -22 42 -1
v -23 42 -2
v -22 42 -2
v -21 43 -1
v -20 43 -1
v -21 43 -4
v -20 43 -4
v 19 44 4
v 20 44 4
v 19 44 3
v 20 44 3
v -22 44 -1
v -21 44 -1
v -22 44 -4
v -21 44 -4
v -24 45 -1
v -22 45 -1
v -24 45 -4
v -22 45 -4
v 19 53 3
v 20 53 3
v 19 53 2
v 20 53 2
v 19 55 2
v 20 55 2
v 19 55 1
v 20 55 1
v -23 65 -2
v -22 65 -2
v -23 65 -3
v -22 65 -3
v -23 67 -1
v -22 67 -1
v -23 67 -2
v -22 67 -2
v -21 68 -1
v -20 68 -1
v -21 68 -4
v -20 68 -4
v -24 69 -1
v -21 69 -1
v -24 69 -4
v -21 69 -4
v -24 14 -1
v -22 14 -1
v -24 14 -4
v -22 14 -4
v -22 15 -1
v -21 15 -1
v -22 15 -4
v -21 15 -4
v -21 16 -1
v -20 16 -1
v -21 16 -4
v -20 16 -4
v -23 19 -1
v -22 19 -1
v -23 19 -3
v -22 19 -3
v -24 38 -1
v -22 38 -1
v -24 38 -4
v -22 38 -4
v -22 39 -1
v -21 39 -1
v -22 39 -4
v -21 39 -4
v -21 40 -1
v -20 40 -1
v -21 40 -4
v -20 40 -4
v 19 43 2
v 20 43 2
v 19 43 1
v 20 43 1
v -23 43 -1
v -22 43 -1
v -23 43 -3
v -22 43 -3
v 19 45 3
v 20 45 3
v 19 45 2
v 20 45 2
v 19 54 4
v 20 54 4
v 19 54 3
v 20 54 3
v 19 56 3
v 20 56 3
v 19 56 2
v 20 56 2
v 19 58 2
v 20 58 2
v 19 58 1
v 20 58 1
v -24 63 -1
v -22 63 -1
v -24 63 -4
v -22 63 -4
v -22 64 -1
v -21 64 -1
v -22 64 -4
v -21 64 -4
v -21 65 -1
v -20 65 -1
v -21 65 -4
v -20 65 -4
v -23 68 -1
v -22 68 -1
v -23 68 -3
v -22 68 -3
v -24 78 1
v -23 78 1
v 23 78 1
v 24 78 1
v -24 78 -0
v -23 78 -0
v 23 78 -0
v 24 78 -0
v -24 78 -1
v -23 78 -1
v 23 78 -1
v 24 78 -1
v -24 78 -4
v -23 78 -4
v 23 78 -4
v 24 78 -4
v -23 79 1
v 23 79 1
v -25 79 -0
v -24 79 -0
v -23 79 -0
v 23 79 -0
v 24 79 -0
v 25 79 -0
v -25 79 -1
v -24 79 -1
v -23 79 -1
v 23 79 -1
v 24 79 -1
v 25 79 -1
v -23 79 -4
v 23 79 -4
v -24 80 -0
v 24 80 -0
v -24 80 -1
v 24 80 -1

# faces
f 3/1/1 2/1/1 1/1/1
f 4/1/1 2/1/1 3/1/1
f 7/1/1 6/1/1 5/1/1
f 8/1/1 6/1/1 7/1/1
f 13/1/1 12/1/1 11/1/1
f 14/1/1 12/1/1 13/1/1
f 17/1/1 16/1/1 15/1/1
f 18/1/1 16/1/1 17/1/1
f 21/1/1 20/1/1 19/1/1
f 22/1/1 20/1/1 21/1/1
f 25/1/1 10/1/1 9/1/1
f 26/1/1 10/1/1 25/1/1
f 27/1/1 24/1/1 23/1/1
f 28/1/1 24/1/1 27/1/1
f 31/1/1 30/1/1 29/1/1
f 32/1/1 30/1/1 31/1/1
f 37/1/1 34/1/1 33/1/1
f 38/1/1 34/1/1 37/1/1
f 39/1/1 36/1/1 35/1/1
f 40/1/1 36/1/1 39/1/1
f 44/1/1 42/1/1 41/1/1
f 45/1/1 44/1/1 43/1/1
f 46/1/1 42/1/1 44/1/1
f 46/1/1 44/1/1 45/1/1
f 50/1/1 48/1/1 47/1/1
f 51/1/1 50/1/1 49/1/1
f 52/1/1 48/1/1 50/1/1
f 52/1/1 50/1/1 51/1/1
f 56/1/1 54/1/1 53/1/1
f 57/1/1 56/1/1 55/1/1
f 58/1/1 54/1/1 56/1/1
f 58/1/1 56/1/1 57/1/1
f 63/1/1 60/1/1 59/1/1
f 64/1/1 60/1/1 63/1/1
f 65/1/1 62/1/1 61/1/1
f 66/1/1 62/1/1 65/1/1
f 69/1/1 68/1/1 67/1/1
f 70/1/1 68/1/1 69/1/1
f 73/1/1 72/1/1 71/1/1
f 74/1/1 72/1/1 73/1/1
f 77/1/1 76/1/1 75/1/1
f 78/1/1 76/1/1 77/1/1
f 81/1/1 80/1/1 79/1/1
f 82/1/1 80/1/1 81/1/1
f 85/1/1 84/1/1 83/1/1
f 86/1/1 84/1/1 85/1/1
f 89/1/1 88/1/1 87/1/1
f 90/1/1 88/1/1 89/1/1
f 93/1/1 92/1/1 91/1/1
f 94/1/1 92/1/1 93/1/1
f 97/1/1 96/1/1 95/1/1
f 98/1/1 96/1/1 97/1/1
f 101/1/1 100/1/1 99/1/1
f 102/1/1 100/1/1 101/1/1
f 105/1/1 104/1/1 103/1/1
f 106/1/1 104/1/1 105/1/1
f 109/1/1 108/1/1 107/1/1
f 110/1/1 108/1/1 109/1/1
f 113/1/1 112/1/1 111/1/1
f 114/1/1 112/1/1 113/1/1
f 117/1/1 116/1/1 115/1/1
f 118/1/1 116/1/1 117/1/1
f 121/1/1 120/1/1 119/1/1
f 122/1/1 120/1/1 121/1/1
f 126/1/1 124/1/1 123/1/1
f 127/1/1 124/1/1 126/1/1
f 127/1/1 126/1/1 125/1/1
f 128/1/1 124/1/1 127/1/1
f 130/1/1 127/1/1 125/1/1
f 131/1/1 127/1/1 130/1/1
f 131/1/1 130/1/1 129/1/1
f 132/1/1 127/1/1 131/1/1
f 133/1/1 131/1/1 129/1/1
f 135/1/1 133/1/1 129/1/1
f 135/1/1 134/1/1 133/1/1
f 136/1/1 134/1/1 135/1/1
f 137/1/1 134/1/1 136/1/1
f 139/1/1 137/1/1 136/1/1
f 139/1/1 138/1/1 137/1/1
f 140/1/1 138/1/1 139/1/1
f 141/1/1 138/1/1 140/1/1
f 142/1/1 138/1/1 141/1/1
f 143/1/2 144/1/2 146/1/2
f 145/1/2 146/1/2 147/1/2
f 146/1/2 144/1/2 148/1/2
f 147/1/2 146/1/2 148/1/2
f 149/1/2 150/1/2 152/1/2
f 151/1/2 152/1/2 153/1/2
f 152/1/2 150/1/2 154/1/2
f 153/1/2 152/1/2 154/1/2
f 155/1/2 156/1/2 158/1/2
f 157/1/2 158/1/2 159/1/2
f 158/1/2 156/1/2 160/1/2
f 159/1/2 158/1/2 160/1/2
f 161/1/2 162/1/2 164/1/2
f 164/1/2 162/1/2 165/1/2
f 163/1/2 164/1/2 165/1/2
f 165/1/2 162/1/2 166/1/2
f 163/1/2 165/1/2 168/1/2
f 168/1/2 165/1/2 169/1/2
f 167/1/2 168/1/2 169/1/2
f 169/1/2 165/1/2 170/1/2
f 167/1/2 169/1/2 171/1/2
f 167/1/2 171/1/2 173/1/2
f 171/1/2 172/1/2 173/1/2
f 173/1/2 172/1/2 174/1/2
f 174/1/2 172/1/2 175/1/2
f 174/1/2 175/1/2 177/1/2
f 175/1/2 176/1/2 177/1/2
f 177/1/2 176/1/2 178/1/2
f 178/1/2 176/1/2 179/1/2
f 179/1/2 176/1/2 180/1/2
f 181/1/2 182/1/2 185/1/2
f 185/1/2 182/1/2 186/1/2
f 183/1/2 184/1/2 187/1/2
f 187/1/2 184/1/2 188/1/2
f 189/1/2 190/1/2 193/1/2
f 193/1/2 190/1/2 194/1/2
f 191/1/2 192/1/2 195/1/2
f 195/1/2 192/1/2 196/1/2
f 197/1/2 198/1/2 199/1/2
f 199/1/2 198/1/2 200/1/2
f 201/1/2 202/1/2 205/1/2
f 205/1/2 202/1/2 206/1/2
f 203/1/2 204/1/2 207/1/2
f 207/1/2 204/1/2 208/1/2
f 209/1/2 210/1/2 211/1/2
f 211/1/2 210/1/2 212/1/2
f 213/1/2 214/1/2 215/1/2
f 215/1/2 214/1/2 216/1/2
f 219/1/3 218/1/3 217/1/3
f 220/1/3 218/1/3 219/1/3
f 225/1/3 222/1/3 221/1/3
f 226/1/3 222/1/3 225/1/3
f 227/1/3 224/1/3 223/1/3
f 228/1/3 224/1/3 227/1/3
f 233/1/3 230/1/3 229/1/3
f 234/1/3 230/1/3 233/1/3
f 235/1/3 232/1/3 231/1/3
f 236/1/3 232/1/3 235/1/3
f 240/1/3 238/1/3 237/1/3
f 241/1/3 238/1/3 240/1/3
f 243/1/3 240/1/3 239/1/3
f 243/1/3 242/1/3 241/1/3
f 243/1/3 241/1/3 240/1/3
f 244/1/3 242/1/3 243/1/3
f 245/1/3 242/1/3 244/1/3
f 246/1/3 242/1/3 245/1/3
f 247/1/3 243/1/3 239/1/3
f 248/1/3 245/1/3 244/1/3
f 249/1/3 245/1/3 248/1/3
f 250/1/3 242/1/3 246/1/3
f 251/1/3 249/1/3 248/1/3
f 251/1/3 250/1/3 249/1/3
f 251/1/3 247/1/3 239/1/3
f 251/1/3 248/1/3 247/1/3
f 252/1/3 250/1/3 251/1/3
f 253/1/3 242/1/3 250/1/3
f 253/1/3 250/1/3 252/1/3
f 254/1/3 242/1/3 253/1/3
f 255/1/3 253/1/3 252/1/3
f 256/1/3 253/1/3 255/1/3
f 260/1/3 258/1/3 257/1/3
f 261/1/3 258/1/3 260/1/3
f 262/1/3 258/1/3 261/1/3
f 263/1/3 258/1/3 262/1/3
f 265/1/3 260/1/3 259/1/3
f 265/1/3 261/1/3 260/1/3
f 266/1/3 261/1/3 265/1/3
f 267/1/3 264/1/3 263/1/3
f 267/1/3 263/1/3 262/1/3
f 268/1/3 264/1/3 267/1/3
f 269/1/3 265/1/3 259/1/3
f 272/1/3 264/1/3 268/1/3
f 273/1/3 270/1/3 269/1/3
f 273/1/3 269/1/3 259/1/3
f 274/1/3 270/1/3 273/1/3
f 275/1/3 270/1/3 274/1/3
f 276/1/3 272/1/3 271/1/3
f 277/1/3 264/1/3 272/1/3
f 277/1/3 272/1/3 276/1/3
f 278/1/3 264/1/3 277/1/3
f 279/1/3 275/1/3 274/1/3
f 279/1/3 276/1/3 275/1/3
f 279/1/3 277/1/3 276/1/3
f 280/1/3 277/1/3 279/1/3
f 287/1/3 282/1/3 281/1/3
f 288/1/3 282/1/3 287/1/3
f 289/1/3 284/1/3 283/1/3
f 290/1/3 284/1/3 289/1/3
f 291/1/3 286/1/3 285/1/3
f 292/1/3 286/1/3 291/1/3
f 293/1/4 294/1/4 295/1/4
f 295/1/4 294/1/4 296/1/4
f 297/1/4 298/1/4 301/1/4
f 301/1/4 298/1/4 302/1/4
f 299/1/4 300/1/4 303/1/4
f 303/1/4 300/1/4 304/1/4
f 305/1/4 306/1/4 308/1/4
f 308/1/4 306/1/4 309/1/4
f 309/1/4 306/1/4 310/1/4
f 310/1/4 306/1/4 311/1/4
f 311/1/4 306/1/4 312/1/4
f 312/1/4 306/1/4 313/1/4
f 313/1/4 306/1/4 314/1/4
f 314/1/4 306/1/4 315/1/4
f 315/1/4 306/1/4 316/1/4
f 316/1/4 306/1/4 317/1/4
f 307/1/4 308/1/4 319/1/4
f 308/1/4 309/1/4 319/1/4
f 319/1/4 309/1/4 320/1/4
f 310/1/4 311/1/4 321/1/4
f 321/1/4 311/1/4 322/1/4
f 312/1/4 313/1/4 323/1/4
f 323/1/4 313/1/4 324/1/4
f 314/1/4 315/1/4 325/1/4
f 325/1/4 315/1/4 326/1/4
f 317/1/4 318/1/4 327/1/4
f 316/1/4 317/1/4 327/1/4
f 327/1/4 318/1/4 328/1/4
f 310/1/4 321/1/4 329/1/4
f 329/1/4 321/1/4 330/1/4
f 330/1/4 321/1/4 331/1/4
f 322/1/4 311/1/4 332/1/4
f 332/1/4 311/1/4 333/1/4
f 333/1/4 311/1/4 334/1/4
f 312/1/4 323/1/4 335/1/4
f 335/1/4 323/1/4 336/1/4
f 336/1/4 323/1/4 337/1/4
f 324/1/4 313/1/4 338/1/4
f 338/1/4 313/1/4 339/1/4
f 339/1/4 313/1/4 340/1/4
f 314/1/4 325/1/4 341/1/4
f 341/1/4 325/1/4 342/1/4
f 342/1/4 325/1/4 343/1/4
f 326/1/4 315/1/4 344/1/4
f 330/1/4 331/1/4 345/1/4
f 331/1/4 332/1/4 345/1/4
f 332/1/4 333/1/4 345/1/4
f 345/1/4 333/1/4 346/1/4
f 346/1/4 333/1/4 347/1/4
f 347/1/4 333/1/4 348/1/4
f 336/1/4 337/1/4 349/1/4
f 338/1/4 339/1/4 349/1/4
f 337/1/4 338/1/4 349/1/4
f 349/1/4 339/1/4 350/1/4
f 350/1/4 339/1/4 351/1/4
f 351/1/4 339/1/4 352/1/4
f 342/1/4 343/1/4 353/1/4
f 343/1/4 344/1/4 353/1/4
f 353/1/4 344/1/4 354/1/4
f 344/1/4 315/1/4 355/1/4
f 354/1/4 344/1/4 355/1/4
f 355/1/4 315/1/4 356/1/4
f 346/1/4 347/1/4 357/1/4
f 357/1/4 347/1/4 358/1/4
f 350/1/4 351/1/4 359/1/4
f 359/1/4 351/1/4 360/1/4
f 354/1/4 355/1/4 361/1/4
f 361/1/4 355/1/4 362/1/4
f 307/1/4 319/1/4 363/1/4
f 328/1/4 318/1/4 366/1/4
f 363/1/4 364/1/4 367/1/4
f 307/1/4 363/1/4 367/1/4
f 367/1/4 364/1/4 368/1/4
f 368/1/4 364/1/4 369/1/4
f 365/1/4 366/1/4 370/1/4
f 366/1/4 318/1/4 371/1/4
f 370/1/4 366/1/4 371/1/4
f 371/1/4 318/1/4 372/1/4
f 368/1/4 369/1/4 373/1/4
f 369/1/4 370/1/4 373/1/4
f 370/1/4 371/1/4 373/1/4
f 373/1/4 371/1/4 374/1/4
f 375/1/4 376/1/4 381/1/4
f 381/1/4 376/1/4 382/1/4
f 377/1/4 378/1/4 383/1/4
f 383/1/4 378/1/4 384/1/4
f 379/1/4 380/1/4 385/1/4
f 385/1/4 380/1/4 386/1/4
f 387/1/4 388/1/4 396/1/4
f 393/1/4 394/1/4 397/1/4
f 395/1/4 396/1/4 399/1/4
f 396/1/4 388/1/4 399/1/4
f 389/1/4 390/1/4 402/1/4
f 402/1/4 390/1/4 403/1/4
f 391/1/4 392/1/4 406/1/4
f 406/1/4 392/1/4 407/1/4
f 399/1/4 400/1/4 409/1/4
f 403/1/4 404/1/4 412/1/4
f 401/1/4 402/1/4 412/1/4
f 402/1/4 403/1/4 412/1/4
f 412/1/4 404/1/4 413/1/4
f 407/1/4 408/1/4 416/1/4
f 406/1/4 407/1/4 416/1/4
f 405/1/4 406/1/4 416/1/4
f 416/1/4 408/1/4 417/1/4
f 397/1/4 398/1/4 420/1/4
f 393/1/4 397/1/4 420/1/4
f 409/1/4 410/1/4 421/1/4
f 413/1/4 414/1/4 422/1/4
f 412/1/4 413/1/4 422/1/4
f 411/1/4 412/1/4 422/1/4
f 422/1/4 414/1/4 423/1/4
f 417/1/4 418/1/4 424/1/4
f 416/1/4 417/1/4 424/1/4
f 415/1/4 416/1/4 424/1/4
f 424/1/4 418/1/4 425/1/4
f 419/1/4 420/1/4 426/1/4
f 422/1/4 423/1/4 427/1/4
f 425/1/4 426/1/4 427/1/4
f 409/1/4 421/1/4 427/1/4
f 424/1/4 425/1/4 427/1/4
f 423/1/4 424/1/4 427/1/4
f 421/1/4 422/1/4 427/1/4
f 395/1/4 399/1/4 427/1/4
f 399/1/4 409/1/4 427/1/4
f 427/1/4 426/1/4 428/1/4
f 426/1/4 420/1/4 429/1/4
f 428/1/4 426/1/4 429/1/4
f 420/1/4 398/1/4 429/1/4
f 429/1/4 398/1/4 430/1/4
f 428/1/4 429/1/4 431/1/4
f 431/1/4 429/1/4 432/1/4
f 435/1/5 434/1/5 433/1/5
f 436/1/5 434/1/5 435/1/5
f 441/1/5 438/1/5 437/1/5
f 442/1/5 438/1/5 441/1/5
f 443/1/5 440/1/5 439/1/5
f 444/1/5 440/1/5 443/1/5
f 447/1/5 446/1/5 445/1/5
f 448/1/5 446/1/5 447/1/5
f 451/1/5 450/1/5 449/1/5
f 452/1/5 450/1/5 451/1/5
f 457/1/5 454/1/5 453/1/5
f 458/1/5 454/1/5 457/1/5
f 459/1/5 456/1/5 455/1/5
f 460/1/5 456/1/5 459/1/5
f 465/1/5 462/1/5 461/1/5
f 466/1/5 462/1/5 465/1/5
f 467/1/5 464/1/5 463/1/5
f 468/1/5 464/1/5 467/1/5
f 471/1/5 470/1/5 469/1/5
f 472/1/5 470/1/5 471/1/5
f 475/1/5 474/1/5 473/1/5
f 476/1/5 474/1/5 475/1/5
f 479/1/5 478/1/5 477/1/5
f 480/1/5 478/1/5 479/1/5
f 483/1/5 482/1/5 481/1/5
f 484/1/5 482/1/5 483/1/5
f 487/1/5 486/1/5 485/1/5
f 488/1/5 486/1/5 487/1/5
f 491/1/5 490/1/5 489/1/5
f 492/1/5 490/1/5 491/1/5
f 495/1/5 494/1/5 493/1/5
f 496/1/5 494/1/5 495/1/5
f 499/1/5 498/1/5 497/1/5
f 500/1/5 498/1/5 499/1/5
f 503/1/5 502/1/5 501/1/5
f 504/1/5 502/1/5 503/1/5
f 507/1/5 506/1/5 505/1/5
f 508/1/5 506/1/5 507/1/5
f 511/1/5 510/1/5 509/1/5
f 512/1/5 510/1/5 511/1/5
f 515/1/5 514/1/5 513/1/5
f 516/1/5 514/1/5 515/1/5
f 519/1/5 518/1/5 517/1/5
f 520/1/5 518/1/5 519/1/5
f 523/1/5 522/1/5 521/1/5
f 524/1/5 522/1/5 523/1/5
f 527/1/5 526/1/5 525/1/5
f 528/1/5 526/1/5 527/1/5
f 531/1/5 530/1/5 529/1/5
f 532/1/5 530/1/5 531/1/5
f 535/1/5 534/1/5 533/1/5
f 536/1/5 534/1/5 535/1/5
f 539/1/5 538/1/5 537/1/5
f 540/1/5 538/1/5 539/1/5
f 543/1/5 542/1/5 541/1/5
f 544/1/5 542/1/5 543/1/5
f 545/1/6 546/1/6 547/1/6
f 547/1/6 546/1/6 548/1/6
f 549/1/6 550/1/6 551/1/6
f 551/1/6 550/1/6 552/1/6
f 553/1/6 554/1/6 555/1/6
f 555/1/6 554/1/6 556/1/6
f 557/1/6 558/1/6 559/1/6
f 559/1/6 558/1/6 560/1/6
f 561/1/6 562/1/6 563/1/6
f 563/1/6 562/1/6 564/1/6
f 565/1/6 566/1/6 567/1/6
f 567/1/6 566/1/6 568/1/6
f 569/1/6 570/1/6 571/1/6
f 571/1/6 570/1/6 572/1/6
f 573/1/6 574/1/6 575/1/6
f 575/1/6 574/1/6 576/1/6
f 577/1/6 578/1/6 579/1/6
f 579/1/6 578/1/6 580/1/6
f 581/1/6 582/1/6 583/1/6
f 583/1/6 582/1/6 584/1/6
f 585/1/6 586/1/6 587/1/6
f 587/1/6 586/1/6 588/1/6
f 589/1/6 590/1/6 591/1/6
f 591/1/6 590/1/6 592/1/6
f 593/1/6 594/1/6 595/1/6
f 595/1/6 594/1/6 596/1/6
f 597/1/6 598/1/6 599/1/6
f 599/1/6 598/1/6 600/1/6
f 601/1/6 602/1/6 603/1/6
f 603/1/6 602/1/6 604/1/6
f 605/1/6 606/1/6 607/1/6
f 607/1/6 606/1/6 608/1/6
f 609/1/6 610/1/6 611/1/6
f 611/1/6 610/1/6 612/1/6
f 613/1/6 614/1/6 617/1/6
f 617/1/6 614/1/6 618/1/6
f 615/1/6 616/1/6 619/1/6
f 619/1/6 616/1/6 620/1/6
f 621/1/6 622/1/6 625/1/6
f 625/1/6 622/1/6 626/1/6
f 623/1/6 624/1/6 627/1/6
f 627/1/6 624/1/6 628/1/6
f 629/1/6 630/1/6 633/1/6
f 633/1/6 630/1/6 634/1/6
f 631/1/6 632/1/6 637/1/6
f 637/1/6 632/1/6 638/1/6
f 635/1/6 636/1/6 641/1/6
f 641/1/6 636/1/6 642/1/6
f 639/1/6 640/1/6 643/1/6
f 643/1/6 640/1/6 644/1/6
f 645/1/6 646/1/6 647/1/6
f 647/1/6 646/1/6 648/1/6
